EESchema Schematic File Version 2
LIBS:power
LIBS:device
LIBS:transistors
LIBS:conn
LIBS:linear
LIBS:regul
LIBS:74xx
LIBS:cmos4000
LIBS:adc-dac
LIBS:memory
LIBS:xilinx
LIBS:microcontrollers
LIBS:dsp
LIBS:microchip
LIBS:analog_switches
LIBS:motorola
LIBS:texas
LIBS:intel
LIBS:audio
LIBS:interface
LIBS:digital-audio
LIBS:philips
LIBS:display
LIBS:cypress
LIBS:siliconi
LIBS:opto
LIBS:atmel
LIBS:contrib
LIBS:valves
LIBS:XPT2046
LIBS:NCS2211
LIBS:SSM3J328RLF
LIBS:IP4220CZ6
LIBS:LD3985M3xR
LIBS:RT9728Bx
LIBS:DIN_6
LIBS:5INCH_DPI_LCD
LIBS:RT4533
LIBS:STM32F767VxTx
LIBS:switches
LIBS:Mounting_Hole
LIBS:diy-vt100-cache
EELAYER 25 0
EELAYER END
$Descr A4 11693 8268
encoding utf-8
Sheet 9 11
Title "diy-VT100"
Date ""
Rev "0.4"
Comp "Mad Resistor"
Comment1 "https://www.madresistor.com/diy-vt100"
Comment2 "Copyright (C) 2016, 2017 Mad Resistor"
Comment3 ""
Comment4 ""
$EndDescr
$Comp
L CONN_02X10 P8
U 1 1 58B233C3
P 4900 3000
F 0 "P8" H 4900 3550 50  0000 C CNN
F 1 "EXT" V 4900 3000 50  0000 C CNN
F 2 "Pin_Headers:Pin_Header_Straight_2x10_Pitch2.54mm_SMD" H 4900 1800 50  0001 C CNN
F 3 "" H 4900 1800 50  0000 C CNN
	1    4900 3000
	1    0    0    -1  
$EndComp
Text HLabel 4650 2750 0    60   BiDi ~ 0
NRST
Text HLabel 4650 2950 0    60   BiDi ~ 0
PB6
Text HLabel 4650 3250 0    60   BiDi ~ 0
PA0
Text HLabel 4650 3350 0    60   BiDi ~ 0
PA2
Text HLabel 5150 3450 2    60   BiDi ~ 0
PD0
Text HLabel 5150 3350 2    60   BiDi ~ 0
PD1
$Comp
L VDD #PWR088
U 1 1 58B237FB
P 4650 2550
F 0 "#PWR088" H 4650 2400 50  0001 C CNN
F 1 "VDD" H 4650 2700 50  0000 C CNN
F 2 "" H 4650 2550 50  0000 C CNN
F 3 "" H 4650 2550 50  0000 C CNN
	1    4650 2550
	1    0    0    -1  
$EndComp
$Comp
L +5V #PWR089
U 1 1 58B23811
P 5150 2550
F 0 "#PWR089" H 5150 2400 50  0001 C CNN
F 1 "+5V" H 5150 2690 50  0000 C CNN
F 2 "" H 5150 2550 50  0000 C CNN
F 3 "" H 5150 2550 50  0000 C CNN
	1    5150 2550
	1    0    0    -1  
$EndComp
Text HLabel 4650 3050 0    60   BiDi ~ 0
PB1
Text HLabel 4650 3150 0    60   BiDi ~ 0
PA7
$Comp
L GND #PWR090
U 1 1 58B316EE
P 5600 3650
F 0 "#PWR090" H 5600 3400 50  0001 C CNN
F 1 "GND" H 5600 3500 50  0000 C CNN
F 2 "" H 5600 3650 50  0000 C CNN
F 3 "" H 5600 3650 50  0000 C CNN
	1    5600 3650
	1    0    0    -1  
$EndComp
$Comp
L GND #PWR091
U 1 1 58B31704
P 4250 3650
F 0 "#PWR091" H 4250 3400 50  0001 C CNN
F 1 "GND" H 4250 3500 50  0000 C CNN
F 2 "" H 4250 3650 50  0000 C CNN
F 3 "" H 4250 3650 50  0000 C CNN
	1    4250 3650
	1    0    0    -1  
$EndComp
Text HLabel 4650 2850 0    60   BiDi ~ 0
PB7
Text HLabel 5150 3150 2    60   BiDi ~ 0
PD3
$Comp
L +5V #PWR092
U 1 1 58C92BDC
P 5900 2550
F 0 "#PWR092" H 5900 2400 50  0001 C CNN
F 1 "+5V" H 5900 2690 50  0000 C CNN
F 2 "" H 5900 2550 50  0000 C CNN
F 3 "" H 5900 2550 50  0000 C CNN
	1    5900 2550
	1    0    0    -1  
$EndComp
$Comp
L C C37
U 1 1 58C92BEB
P 5900 2700
F 0 "C37" H 5925 2800 50  0000 L CNN
F 1 "100nF" H 5925 2600 50  0000 L CNN
F 2 "Capacitors_SMD:C_0603" H 5938 2550 50  0001 C CNN
F 3 "" H 5900 2700 50  0001 C CNN
	1    5900 2700
	1    0    0    -1  
$EndComp
$Comp
L GND #PWR093
U 1 1 58C92C2E
P 5900 2850
F 0 "#PWR093" H 5900 2600 50  0001 C CNN
F 1 "GND" H 5900 2700 50  0000 C CNN
F 2 "" H 5900 2850 50  0001 C CNN
F 3 "" H 5900 2850 50  0001 C CNN
	1    5900 2850
	1    0    0    -1  
$EndComp
$Comp
L VDD #PWR094
U 1 1 58C92C52
P 3950 2550
F 0 "#PWR094" H 3950 2400 50  0001 C CNN
F 1 "VDD" H 3950 2700 50  0000 C CNN
F 2 "" H 3950 2550 50  0000 C CNN
F 3 "" H 3950 2550 50  0000 C CNN
	1    3950 2550
	1    0    0    -1  
$EndComp
$Comp
L C C36
U 1 1 58C92C63
P 3950 2700
F 0 "C36" H 3975 2800 50  0000 L CNN
F 1 "100nF" H 3975 2600 50  0000 L CNN
F 2 "Capacitors_SMD:C_0603" H 3988 2550 50  0001 C CNN
F 3 "" H 3950 2700 50  0001 C CNN
	1    3950 2700
	-1   0    0    -1  
$EndComp
$Comp
L GND #PWR095
U 1 1 58C92CB2
P 3950 2850
F 0 "#PWR095" H 3950 2600 50  0001 C CNN
F 1 "GND" H 3950 2700 50  0000 C CNN
F 2 "" H 3950 2850 50  0001 C CNN
F 3 "" H 3950 2850 50  0001 C CNN
	1    3950 2850
	1    0    0    -1  
$EndComp
Text HLabel 5150 3050 2    60   BiDi ~ 0
PD4
Text HLabel 5150 2950 2    60   BiDi ~ 0
PD5
Text HLabel 5150 2850 2    60   BiDi ~ 0
PD6
Text HLabel 5150 2750 2    60   BiDi ~ 0
PD7
Wire Wire Line
	4650 2650 4250 2650
Wire Wire Line
	4250 2650 4250 3650
Wire Wire Line
	4650 3450 4250 3450
Connection ~ 4250 3450
Wire Wire Line
	5600 3650 5600 2650
Wire Wire Line
	5600 2650 5150 2650
$Comp
L SW_SPST SW2
U 1 1 58D8954B
P 5050 4700
F 0 "SW2" H 5050 4825 50  0000 C CNN
F 1 "SET-UP" H 5050 4600 50  0000 C CNN
F 2 "Buttons_Switches_SMD:SW_SPST_EVQP7C" H 5050 4700 50  0001 C CNN
F 3 "" H 5050 4700 50  0001 C CNN
	1    5050 4700
	1    0    0    -1  
$EndComp
Wire Wire Line
	4700 4700 4850 4700
Wire Wire Line
	5250 4700 5350 4700
Wire Wire Line
	5350 4700 5350 4750
$Comp
L GND #PWR096
U 1 1 58D89555
P 5350 4750
F 0 "#PWR096" H 5350 4500 50  0001 C CNN
F 1 "GND" H 5350 4600 50  0000 C CNN
F 2 "" H 5350 4750 50  0001 C CNN
F 3 "" H 5350 4750 50  0001 C CNN
	1    5350 4750
	1    0    0    -1  
$EndComp
Text HLabel 4700 4700 0    60   Output ~ 0
SETUP
$Comp
L R R36
U 1 1 58D8EAEC
P 4800 4500
F 0 "R36" V 4880 4500 50  0000 C CNN
F 1 "10K" V 4800 4500 50  0000 C CNN
F 2 "Resistors_SMD:R_0603" V 4730 4500 50  0001 C CNN
F 3 "" H 4800 4500 50  0001 C CNN
	1    4800 4500
	1    0    0    -1  
$EndComp
Wire Wire Line
	4800 4650 4800 4700
Connection ~ 4800 4700
$Comp
L VDD #PWR097
U 1 1 58D8ECAE
P 4800 4350
F 0 "#PWR097" H 4800 4200 50  0001 C CNN
F 1 "VDD" H 4800 4500 50  0000 C CNN
F 2 "" H 4800 4350 50  0001 C CNN
F 3 "" H 4800 4350 50  0001 C CNN
	1    4800 4350
	1    0    0    -1  
$EndComp
Text Notes 4200 5250 0    60   ~ 0
(Software debouncing required)
Text GLabel 8550 1550 3    60   BiDi ~ 0
SHLD
Text GLabel 9250 1550 3    60   BiDi ~ 0
SHLD
Text GLabel 9950 1550 3    60   BiDi ~ 0
SHLD
Text GLabel 10650 1550 3    60   BiDi ~ 0
SHLD
$Comp
L TEST TP39
U 1 1 58EDF5BC
P 4800 4700
F 0 "TP39" H 4800 5000 50  0000 C BNN
F 1 "TEST" H 4800 4950 50  0000 C CNN
F 2 "Measurement_Points:Measurement_Point_Round-TH_Small" H 4800 4700 50  0001 C CNN
F 3 "" H 4800 4700 50  0001 C CNN
	1    4800 4700
	-1   0    0    1   
$EndComp
Text GLabel 8700 2300 0    60   BiDi ~ 0
SHLD
$Comp
L R R37
U 1 1 58EFA5F0
P 8950 2300
F 0 "R37" V 9030 2300 50  0000 C CNN
F 1 "0" V 8950 2300 50  0000 C CNN
F 2 "Resistors_SMD:R_0603" V 8880 2300 50  0001 C CNN
F 3 "" H 8950 2300 50  0001 C CNN
	1    8950 2300
	0    1    1    0   
$EndComp
Wire Wire Line
	8700 2300 8800 2300
Wire Wire Line
	9100 2300 9200 2300
Wire Wire Line
	9200 2300 9200 2350
$Comp
L GND #PWR098
U 1 1 58EFA6C6
P 9200 2350
F 0 "#PWR098" H 9200 2100 50  0001 C CNN
F 1 "GND" H 9200 2200 50  0000 C CNN
F 2 "" H 9200 2350 50  0001 C CNN
F 3 "" H 9200 2350 50  0001 C CNN
	1    9200 2350
	1    0    0    -1  
$EndComp
$Comp
L +5V #PWR099
U 1 1 58EE0697
P 6300 2550
F 0 "#PWR099" H 6300 2400 50  0001 C CNN
F 1 "+5V" H 6300 2690 50  0000 C CNN
F 2 "" H 6300 2550 50  0000 C CNN
F 3 "" H 6300 2550 50  0000 C CNN
	1    6300 2550
	1    0    0    -1  
$EndComp
$Comp
L C C43
U 1 1 58EE069D
P 6300 2700
F 0 "C43" H 6325 2800 50  0000 L CNN
F 1 "4.7uF" H 6325 2600 50  0000 L CNN
F 2 "Capacitors_SMD:C_0805" H 6338 2550 50  0001 C CNN
F 3 "" H 6300 2700 50  0001 C CNN
	1    6300 2700
	1    0    0    -1  
$EndComp
$Comp
L GND #PWR0100
U 1 1 58EE06A3
P 6300 2850
F 0 "#PWR0100" H 6300 2600 50  0001 C CNN
F 1 "GND" H 6300 2700 50  0000 C CNN
F 2 "" H 6300 2850 50  0001 C CNN
F 3 "" H 6300 2850 50  0001 C CNN
	1    6300 2850
	1    0    0    -1  
$EndComp
$Comp
L VDD #PWR0101
U 1 1 58EE074F
P 3550 2550
F 0 "#PWR0101" H 3550 2400 50  0001 C CNN
F 1 "VDD" H 3550 2700 50  0000 C CNN
F 2 "" H 3550 2550 50  0000 C CNN
F 3 "" H 3550 2550 50  0000 C CNN
	1    3550 2550
	1    0    0    -1  
$EndComp
$Comp
L C C41
U 1 1 58EE0755
P 3550 2700
F 0 "C41" H 3575 2800 50  0000 L CNN
F 1 "4.7uF" H 3575 2600 50  0000 L CNN
F 2 "Capacitors_SMD:C_0805" H 3588 2550 50  0001 C CNN
F 3 "" H 3550 2700 50  0001 C CNN
	1    3550 2700
	-1   0    0    -1  
$EndComp
$Comp
L GND #PWR0102
U 1 1 58EE075B
P 3550 2850
F 0 "#PWR0102" H 3550 2600 50  0001 C CNN
F 1 "GND" H 3550 2700 50  0000 C CNN
F 2 "" H 3550 2850 50  0001 C CNN
F 3 "" H 3550 2850 50  0001 C CNN
	1    3550 2850
	1    0    0    -1  
$EndComp
Wire Wire Line
	5150 3250 5600 3250
Connection ~ 5600 3250
$Comp
L Mounting_Hole H1
U 1 1 5987710D
P 8550 1100
F 0 "H1" H 8550 1100 60  0000 C CNN
F 1 "Mounting_Hole" H 8550 1400 60  0000 C CNN
F 2 "custom:MountingHole_3.5mm_Single_Pad" H 8550 1100 60  0001 C CNN
F 3 "" H 8550 1100 60  0001 C CNN
	1    8550 1100
	1    0    0    -1  
$EndComp
$Comp
L Mounting_Hole H2
U 1 1 5987717E
P 9250 1100
F 0 "H2" H 9250 1100 60  0000 C CNN
F 1 "Mounting_Hole" H 9250 1400 60  0000 C CNN
F 2 "custom:MountingHole_3.5mm_Single_Pad" H 9250 1100 60  0001 C CNN
F 3 "" H 9250 1100 60  0001 C CNN
	1    9250 1100
	1    0    0    -1  
$EndComp
$Comp
L Mounting_Hole H3
U 1 1 598771C7
P 9950 1100
F 0 "H3" H 9950 1100 60  0000 C CNN
F 1 "Mounting_Hole" H 9950 1400 60  0000 C CNN
F 2 "custom:MountingHole_3.5mm_Single_Pad" H 9950 1100 60  0001 C CNN
F 3 "" H 9950 1100 60  0001 C CNN
	1    9950 1100
	1    0    0    -1  
$EndComp
$Comp
L Mounting_Hole H4
U 1 1 59877217
P 10650 1100
F 0 "H4" H 10650 1100 60  0000 C CNN
F 1 "Mounting_Hole" H 10650 1400 60  0000 C CNN
F 2 "custom:MountingHole_3.5mm_Single_Pad" H 10650 1100 60  0001 C CNN
F 3 "" H 10650 1100 60  0001 C CNN
	1    10650 1100
	1    0    0    -1  
$EndComp
$EndSCHEMATC
