EESchema Schematic File Version 2
LIBS:power
LIBS:device
LIBS:transistors
LIBS:conn
LIBS:linear
LIBS:regul
LIBS:74xx
LIBS:cmos4000
LIBS:adc-dac
LIBS:memory
LIBS:xilinx
LIBS:microcontrollers
LIBS:dsp
LIBS:microchip
LIBS:analog_switches
LIBS:motorola
LIBS:texas
LIBS:intel
LIBS:audio
LIBS:interface
LIBS:digital-audio
LIBS:philips
LIBS:display
LIBS:cypress
LIBS:siliconi
LIBS:opto
LIBS:atmel
LIBS:contrib
LIBS:valves
LIBS:XPT2046
LIBS:NCS2211
LIBS:SSM3J328RLF
LIBS:IP4220CZ6
LIBS:LD3985M3xR
LIBS:RT9728Bx
LIBS:DIN_6
LIBS:5INCH_DPI_LCD
LIBS:RT4533
LIBS:STM32F767VxTx
LIBS:switches
LIBS:Mounting_Hole
LIBS:diy-vt100-cache
EELAYER 25 0
EELAYER END
$Descr A4 11693 8268
encoding utf-8
Sheet 5 11
Title "diy-VT100"
Date ""
Rev "0.4"
Comp "Mad Resistor"
Comment1 "https://www.madresistor.com/diy-vt100"
Comment2 "Copyright (C) 2016, 2017 Mad Resistor"
Comment3 ""
Comment4 ""
$EndDescr
$Comp
L C C21
U 1 1 57667311
P 3150 2250
F 0 "C21" H 3175 2350 50  0000 L CNN
F 1 "100nF" H 3175 2150 50  0000 L CNN
F 2 "Capacitors_SMD:C_0603" H 3188 2100 50  0001 C CNN
F 3 "" H 3150 2250 50  0000 C CNN
	1    3150 2250
	1    0    0    -1  
$EndComp
Text HLabel 3900 2150 0    60   Input ~ 0
RX
Text HLabel 3900 2250 0    60   Output ~ 0
TX
$Comp
L GND #PWR021
U 1 1 576A462E
P 3750 2450
F 0 "#PWR021" H 3750 2200 50  0001 C CNN
F 1 "GND" H 3750 2300 50  0000 C CNN
F 2 "" H 3750 2450 50  0000 C CNN
F 3 "" H 3750 2450 50  0000 C CNN
	1    3750 2450
	1    0    0    -1  
$EndComp
$Comp
L GND #PWR022
U 1 1 576670B2
P 7050 2000
F 0 "#PWR022" H 7050 1750 50  0001 C CNN
F 1 "GND" H 7050 1850 50  0000 C CNN
F 2 "" H 7050 2000 50  0000 C CNN
F 3 "" H 7050 2000 50  0000 C CNN
	1    7050 2000
	1    0    0    -1  
$EndComp
$Comp
L VDD #PWR023
U 1 1 576C2525
P 5600 5000
F 0 "#PWR023" H 5600 4850 50  0001 C CNN
F 1 "VDD" H 5600 5150 50  0000 C CNN
F 2 "" H 5600 5000 50  0000 C CNN
F 3 "" H 5600 5000 50  0000 C CNN
	1    5600 5000
	1    0    0    -1  
$EndComp
$Comp
L LD3985M3xR U4
U 1 1 57696302
P 4550 5050
F 0 "U4" H 4800 4800 60  0000 C CNN
F 1 "LD3985M3xR" H 4550 5250 60  0000 C CNN
F 2 "TO_SOT_Packages_SMD:SOT-23-5" H 4450 4800 60  0001 C CNN
F 3 "" H 4550 5050 60  0000 C CNN
	1    4550 5050
	1    0    0    -1  
$EndComp
$Comp
L C C26
U 1 1 576964A7
P 5200 5300
F 0 "C26" H 5225 5400 50  0000 L CNN
F 1 "10nF" H 5225 5200 50  0000 L CNN
F 2 "Capacitors_SMD:C_0603" H 5238 5150 50  0001 C CNN
F 3 "" H 5200 5300 50  0000 C CNN
	1    5200 5300
	-1   0    0    1   
$EndComp
$Comp
L C C27
U 1 1 57696513
P 5600 5300
F 0 "C27" H 5625 5400 50  0000 L CNN
F 1 "100nF" H 5625 5200 50  0000 L CNN
F 2 "Capacitors_SMD:C_0603" H 5638 5150 50  0001 C CNN
F 3 "" H 5600 5300 50  0000 C CNN
	1    5600 5300
	-1   0    0    -1  
$EndComp
$Comp
L C C28
U 1 1 57696553
P 5800 5300
F 0 "C28" H 5825 5400 50  0000 L CNN
F 1 "4.7uF" H 5825 5200 50  0000 L CNN
F 2 "custom:C_0603_0805" H 5838 5150 50  0001 C CNN
F 3 "" H 5800 5300 50  0000 C CNN
	1    5800 5300
	1    0    0    -1  
$EndComp
$Comp
L C C24
U 1 1 57696590
P 3750 5250
F 0 "C24" H 3775 5350 50  0000 L CNN
F 1 "100nF" H 3775 5150 50  0000 L CNN
F 2 "Capacitors_SMD:C_0603" H 3788 5100 50  0001 C CNN
F 3 "" H 3750 5250 50  0000 C CNN
	1    3750 5250
	1    0    0    -1  
$EndComp
$Comp
L C C22
U 1 1 576965FA
P 3550 5250
F 0 "C22" H 3575 5350 50  0000 L CNN
F 1 "1uF" H 3575 5150 50  0000 L CNN
F 2 "Capacitors_SMD:C_0603" H 3588 5100 50  0001 C CNN
F 3 "" H 3550 5250 50  0000 C CNN
	1    3550 5250
	-1   0    0    -1  
$EndComp
$Comp
L +5V #PWR024
U 1 1 57696724
P 3350 5000
F 0 "#PWR024" H 3350 4850 50  0001 C CNN
F 1 "+5V" H 3350 5140 50  0000 C CNN
F 2 "" H 3350 5000 50  0000 C CNN
F 3 "" H 3350 5000 50  0000 C CNN
	1    3350 5000
	1    0    0    -1  
$EndComp
$Comp
L +3.3V #PWR025
U 1 1 576967BE
P 6400 5000
F 0 "#PWR025" H 6400 4850 50  0001 C CNN
F 1 "+3.3V" H 6400 5140 50  0000 C CNN
F 2 "" H 6400 5000 50  0000 C CNN
F 3 "" H 6400 5000 50  0000 C CNN
	1    6400 5000
	1    0    0    -1  
$EndComp
$Comp
L GND #PWR026
U 1 1 57696897
P 5200 5450
F 0 "#PWR026" H 5200 5200 50  0001 C CNN
F 1 "GND" H 5200 5300 50  0000 C CNN
F 2 "" H 5200 5450 50  0000 C CNN
F 3 "" H 5200 5450 50  0000 C CNN
	1    5200 5450
	1    0    0    -1  
$EndComp
$Comp
L GND #PWR027
U 1 1 576968D0
P 5600 5450
F 0 "#PWR027" H 5600 5200 50  0001 C CNN
F 1 "GND" H 5600 5300 50  0000 C CNN
F 2 "" H 5600 5450 50  0000 C CNN
F 3 "" H 5600 5450 50  0000 C CNN
	1    5600 5450
	1    0    0    -1  
$EndComp
$Comp
L GND #PWR028
U 1 1 57696902
P 5800 5450
F 0 "#PWR028" H 5800 5200 50  0001 C CNN
F 1 "GND" H 5800 5300 50  0000 C CNN
F 2 "" H 5800 5450 50  0000 C CNN
F 3 "" H 5800 5450 50  0000 C CNN
	1    5800 5450
	1    0    0    -1  
$EndComp
$Comp
L GND #PWR029
U 1 1 57696965
P 3750 5450
F 0 "#PWR029" H 3750 5200 50  0001 C CNN
F 1 "GND" H 3750 5300 50  0000 C CNN
F 2 "" H 3750 5450 50  0000 C CNN
F 3 "" H 3750 5450 50  0000 C CNN
	1    3750 5450
	1    0    0    -1  
$EndComp
$Comp
L GND #PWR030
U 1 1 57696997
P 3550 5450
F 0 "#PWR030" H 3550 5200 50  0001 C CNN
F 1 "GND" H 3550 5300 50  0000 C CNN
F 2 "" H 3550 5450 50  0000 C CNN
F 3 "" H 3550 5450 50  0000 C CNN
	1    3550 5450
	1    0    0    -1  
$EndComp
$Comp
L GND #PWR031
U 1 1 576969C9
P 4550 5450
F 0 "#PWR031" H 4550 5200 50  0001 C CNN
F 1 "GND" H 4550 5300 50  0000 C CNN
F 2 "" H 4550 5450 50  0000 C CNN
F 3 "" H 4550 5450 50  0000 C CNN
	1    4550 5450
	1    0    0    -1  
$EndComp
$Comp
L IP4220CZ6 U6
U 1 1 576C63C7
P 6200 1850
F 0 "U6" H 6200 1650 50  0000 C CNN
F 1 "IP4220CZ6" H 6200 2050 50  0000 C CNN
F 2 "TO_SOT_Packages_SMD:TSOT-23-6_MK06A" H 6200 1850 50  0001 C CNN
F 3 "DOCUMENTATION" H 6200 1850 50  0001 C CNN
	1    6200 1850
	1    0    0    -1  
$EndComp
Text HLabel 5450 1700 0    60   Output ~ 0
RX
Text HLabel 5450 1900 0    60   Input ~ 0
TX
NoConn ~ 5450 1800
NoConn ~ 5450 2000
$Comp
L RT9728Bx U5
U 1 1 576C41E9
P 5350 3650
F 0 "U5" H 5350 3550 50  0000 C CNN
F 1 "RT9728Bx" H 5350 3750 50  0000 C CNN
F 2 "TO_SOT_Packages_SMD:SOT-23-6" H 5350 3650 50  0001 C CNN
F 3 "" H 5350 3650 50  0001 C CNN
	1    5350 3650
	1    0    0    -1  
$EndComp
Text Label 2950 3650 0    60   ~ 0
UNREG_5V
$Comp
L C C25
U 1 1 576C467C
P 3950 3200
F 0 "C25" H 3975 3300 50  0000 L CNN
F 1 "100nF" H 3975 3100 50  0000 L CNN
F 2 "Capacitors_SMD:C_0603" H 3988 3050 50  0001 C CNN
F 3 "" H 3950 3200 50  0000 C CNN
	1    3950 3200
	1    0    0    -1  
$EndComp
$Comp
L +5V #PWR032
U 1 1 576C4D8C
P 7050 3300
F 0 "#PWR032" H 7050 3150 50  0001 C CNN
F 1 "+5V" H 7050 3440 50  0000 C CNN
F 2 "" H 7050 3300 50  0000 C CNN
F 3 "" H 7050 3300 50  0000 C CNN
	1    7050 3300
	1    0    0    -1  
$EndComp
$Comp
L GND #PWR033
U 1 1 576C4E32
P 3950 3350
F 0 "#PWR033" H 3950 3100 50  0001 C CNN
F 1 "GND" H 3950 3200 50  0000 C CNN
F 2 "" H 3950 3350 50  0000 C CNN
F 3 "" H 3950 3350 50  0000 C CNN
	1    3950 3350
	1    0    0    -1  
$EndComp
$Comp
L GND #PWR034
U 1 1 576C500E
P 6100 4150
F 0 "#PWR034" H 6100 3900 50  0001 C CNN
F 1 "GND" H 6100 4000 50  0000 C CNN
F 2 "" H 6100 4150 50  0000 C CNN
F 3 "" H 6100 4150 50  0000 C CNN
	1    6100 4150
	1    0    0    -1  
$EndComp
$Comp
L R R17
U 1 1 576C50E7
P 6300 3900
F 0 "R17" V 6380 3900 50  0000 C CNN
F 1 "52.3K" V 6300 3900 50  0000 C CNN
F 2 "Resistors_SMD:R_0603" V 6230 3900 50  0001 C CNN
F 3 "" H 6300 3900 50  0000 C CNN
	1    6300 3900
	-1   0    0    -1  
$EndComp
Text Notes 4800 4100 0    60   ~ 0
Current limit = ~~500mA
$Comp
L GND #PWR035
U 1 1 576C618A
P 6400 4150
F 0 "#PWR035" H 6400 3900 50  0001 C CNN
F 1 "GND" H 6400 4000 50  0000 C CNN
F 2 "" H 6400 4150 50  0000 C CNN
F 3 "" H 6400 4150 50  0000 C CNN
	1    6400 4150
	1    0    0    -1  
$EndComp
Text Label 3150 2050 0    60   ~ 0
UNREG_5V
$Comp
L PWR_FLAG #FLG036
U 1 1 576CE4B0
P 3950 1950
F 0 "#FLG036" H 3950 2045 50  0001 C CNN
F 1 "PWR_FLAG" H 3950 2130 50  0000 C CNN
F 2 "" H 3950 1950 50  0000 C CNN
F 3 "" H 3950 1950 50  0000 C CNN
	1    3950 1950
	1    0    0    -1  
$EndComp
$Comp
L C C29
U 1 1 576CFFE3
P 6750 3600
F 0 "C29" H 6775 3700 50  0000 L CNN
F 1 "100nF" H 6775 3500 50  0000 L CNN
F 2 "Capacitors_SMD:C_0603" H 6788 3450 50  0001 C CNN
F 3 "" H 6750 3600 50  0000 C CNN
	1    6750 3600
	1    0    0    -1  
$EndComp
$Comp
L GND #PWR037
U 1 1 576CFFE9
P 6750 3750
F 0 "#PWR037" H 6750 3500 50  0001 C CNN
F 1 "GND" H 6750 3600 50  0000 C CNN
F 2 "" H 6750 3750 50  0000 C CNN
F 3 "" H 6750 3750 50  0000 C CNN
	1    6750 3750
	1    0    0    -1  
$EndComp
$Comp
L PWR_FLAG #FLG038
U 1 1 576BBD50
P 3750 2450
F 0 "#FLG038" H 3750 2545 50  0001 C CNN
F 1 "PWR_FLAG" H 3750 2630 50  0000 C CNN
F 2 "" H 3750 2450 50  0000 C CNN
F 3 "" H 3750 2450 50  0000 C CNN
	1    3750 2450
	0    -1   -1   0   
$EndComp
$Comp
L R R16
U 1 1 57988700
P 4850 2200
F 0 "R16" V 4930 2200 50  0000 C CNN
F 1 "10K" V 4850 2200 50  0000 C CNN
F 2 "Resistors_SMD:R_0603" V 4780 2200 50  0001 C CNN
F 3 "" H 4850 2200 50  0000 C CNN
	1    4850 2200
	1    0    0    -1  
$EndComp
Text HLabel 4850 2450 3    60   Output ~ 0
RX
$Comp
L VDD #PWR039
U 1 1 5798926D
P 4850 2000
F 0 "#PWR039" H 4850 1850 50  0001 C CNN
F 1 "VDD" H 4850 2150 50  0000 C CNN
F 2 "" H 4850 2000 50  0000 C CNN
F 3 "" H 4850 2000 50  0000 C CNN
	1    4850 2000
	1    0    0    -1  
$EndComp
Text Notes 4750 2550 1    60   ~ 0
Not Populated
$Comp
L C C23
U 1 1 57A8ED94
P 3750 3200
F 0 "C23" H 3775 3300 50  0000 L CNN
F 1 "4.7uF" H 3775 3100 50  0000 L CNN
F 2 "Capacitors_SMD:C_0805" H 3788 3050 50  0001 C CNN
F 3 "" H 3750 3200 50  0000 C CNN
	1    3750 3200
	-1   0    0    -1  
$EndComp
$Comp
L GND #PWR040
U 1 1 57A8EECF
P 3150 2450
F 0 "#PWR040" H 3150 2200 50  0001 C CNN
F 1 "GND" H 3150 2300 50  0000 C CNN
F 2 "" H 3150 2450 50  0000 C CNN
F 3 "" H 3150 2450 50  0000 C CNN
	1    3150 2450
	1    0    0    -1  
$EndComp
$Comp
L GND #PWR041
U 1 1 57A8FEA0
P 3750 3350
F 0 "#PWR041" H 3750 3100 50  0001 C CNN
F 1 "GND" H 3750 3200 50  0000 C CNN
F 2 "" H 3750 3350 50  0000 C CNN
F 3 "" H 3750 3350 50  0000 C CNN
	1    3750 3350
	1    0    0    -1  
$EndComp
Text Notes 4800 3150 0    60   ~ 0
Compatible part (atleast functional)\nRT9728, TPS255
Text Notes 5250 2750 0    60   ~ 0
[pin compatible]\nIP4220CZ6, USBLC6-4, PJUSBLC6-4, \nSRV05-4\n\n[pin compatible BUT 2 IO pins only]\nUSBLC6-2, PJUSBLC6-2
$Comp
L TEST TP11
U 1 1 58B23AB2
P 4450 3650
F 0 "TP11" H 4450 3950 50  0000 C BNN
F 1 "TEST" H 4450 3900 50  0000 C CNN
F 2 "Measurement_Points:Measurement_Point_Round-TH_Small" H 4450 3650 50  0001 C CNN
F 3 "" H 4450 3650 50  0000 C CNN
	1    4450 3650
	1    0    0    1   
$EndComp
$Comp
L TEST TP13
U 1 1 58B24209
P 6400 5000
F 0 "TP13" H 6400 5300 50  0000 C BNN
F 1 "TEST" H 6400 5250 50  0000 C CNN
F 2 "Measurement_Points:Measurement_Point_Round-TH_Small" H 6400 5000 50  0001 C CNN
F 3 "" H 6400 5000 50  0000 C CNN
	1    6400 5000
	0    1    1    0   
$EndComp
$Comp
L TEST TP12
U 1 1 58B245DB
P 6100 3450
F 0 "TP12" H 6100 3750 50  0000 C BNN
F 1 "TEST" H 6100 3700 50  0000 C CNN
F 2 "Measurement_Points:Measurement_Point_Round-TH_Small" H 6100 3450 50  0001 C CNN
F 3 "" H 6100 3450 50  0000 C CNN
	1    6100 3450
	1    0    0    -1  
$EndComp
$Comp
L TEST TP10
U 1 1 58B24C7F
P 4450 3050
F 0 "TP10" H 4450 3350 50  0000 C BNN
F 1 "TEST" H 4450 3300 50  0000 C CNN
F 2 "Measurement_Points:Measurement_Point_Round-TH_Small" H 4450 3050 50  0001 C CNN
F 3 "" H 4450 3050 50  0000 C CNN
	1    4450 3050
	-1   0    0    1   
$EndComp
$Comp
L TEST TP9
U 1 1 58B2A93F
P 3550 5000
F 0 "TP9" H 3550 5300 50  0000 C BNN
F 1 "TEST" H 3550 5250 50  0000 C CNN
F 2 "Measurement_Points:Measurement_Point_Round-TH_Small" H 3550 5000 50  0001 C CNN
F 3 "" H 3550 5000 50  0000 C CNN
	1    3550 5000
	1    0    0    -1  
$EndComp
Text HLabel 3200 1550 0    60   Output ~ 0
TX
$Comp
L TEST TP24
U 1 1 58B2FAA2
P 3200 1550
F 0 "TP24" H 3200 1850 50  0000 C BNN
F 1 "TEST" H 3200 1800 50  0000 C CNN
F 2 "Measurement_Points:Measurement_Point_Round-TH_Small" H 3200 1550 50  0001 C CNN
F 3 "" H 3200 1550 50  0000 C CNN
	1    3200 1550
	0    1    1    0   
$EndComp
$Comp
L TEST TP25
U 1 1 58B2FB68
P 3200 1750
F 0 "TP25" H 3200 2050 50  0000 C BNN
F 1 "TEST" H 3200 2000 50  0000 C CNN
F 2 "Measurement_Points:Measurement_Point_Round-TH_Small" H 3200 1750 50  0001 C CNN
F 3 "" H 3200 1750 50  0000 C CNN
	1    3200 1750
	0    1    1    0   
$EndComp
Text HLabel 3200 1750 0    60   Output ~ 0
RX
$Comp
L TEST TP31
U 1 1 58B32570
P 7550 5200
F 0 "TP31" H 7550 5500 50  0000 C BNN
F 1 "TEST" H 7550 5450 50  0000 C CNN
F 2 "Measurement_Points:Measurement_Point_Round-TH_Small" H 7550 5200 50  0001 C CNN
F 3 "" H 7550 5200 50  0000 C CNN
	1    7550 5200
	1    0    0    -1  
$EndComp
$Comp
L GND #PWR042
U 1 1 58B32576
P 7550 5200
F 0 "#PWR042" H 7550 4950 50  0001 C CNN
F 1 "GND" H 7550 5050 50  0000 C CNN
F 2 "" H 7550 5200 50  0000 C CNN
F 3 "" H 7550 5200 50  0000 C CNN
	1    7550 5200
	1    0    0    -1  
$EndComp
$Comp
L GND #PWR043
U 1 1 58B32443
P 7550 3750
F 0 "#PWR043" H 7550 3500 50  0001 C CNN
F 1 "GND" H 7550 3600 50  0000 C CNN
F 2 "" H 7550 3750 50  0000 C CNN
F 3 "" H 7550 3750 50  0000 C CNN
	1    7550 3750
	1    0    0    -1  
$EndComp
$Comp
L TEST TP33
U 1 1 58B323CC
P 7550 3750
F 0 "TP33" H 7550 4050 50  0000 C BNN
F 1 "TEST" H 7550 4000 50  0000 C CNN
F 2 "Measurement_Points:Measurement_Point_Round-TH_Small" H 7550 3750 50  0001 C CNN
F 3 "" H 7550 3750 50  0000 C CNN
	1    7550 3750
	1    0    0    -1  
$EndComp
$Comp
L TEST TP32
U 1 1 58B322A4
P 4500 1800
F 0 "TP32" H 4500 2100 50  0000 C BNN
F 1 "TEST" H 4500 2050 50  0000 C CNN
F 2 "Measurement_Points:Measurement_Point_Round-TH_Small" H 4500 1800 50  0001 C CNN
F 3 "" H 4500 1800 50  0000 C CNN
	1    4500 1800
	1    0    0    -1  
$EndComp
$Comp
L GND #PWR044
U 1 1 58B321F4
P 4500 1800
F 0 "#PWR044" H 4500 1550 50  0001 C CNN
F 1 "GND" H 4500 1650 50  0000 C CNN
F 2 "" H 4500 1800 50  0000 C CNN
F 3 "" H 4500 1800 50  0000 C CNN
	1    4500 1800
	1    0    0    -1  
$EndComp
Text Notes 3900 4700 0    60   ~ 0
Compatible parts (atleast functional)\nLP2985, RT9020, CAT6219, MC78PC00, FAN2502
Text Notes 5500 1550 0    60   ~ 0
2 pin variant can be used
$Comp
L R R18
U 1 1 58C0A079
P 6500 3900
F 0 "R18" V 6580 3900 50  0000 C CNN
F 1 "NP" V 6500 3900 50  0000 C CNN
F 2 "Resistors_SMD:R_0603" V 6430 3900 50  0001 C CNN
F 3 "" H 6500 3900 50  0000 C CNN
	1    6500 3900
	-1   0    0    -1  
$EndComp
$Comp
L SW_SPDT SW1
U 1 1 58ECD8F2
P 3800 4050
F 0 "SW1" H 3800 4220 50  0000 C CNN
F 1 "POWER" H 3700 3850 50  0000 C CNN
F 2 "Buttons_Switches_SMD:SW_SPDT_PCM12" H 3800 4050 50  0001 C CNN
F 3 "" H 3800 4050 50  0001 C CNN
	1    3800 4050
	-1   0    0    -1  
$EndComp
$Comp
L GND #PWR045
U 1 1 58ED0A77
P 3500 4200
F 0 "#PWR045" H 3500 3950 50  0001 C CNN
F 1 "GND" H 3500 4050 50  0000 C CNN
F 2 "" H 3500 4200 50  0001 C CNN
F 3 "" H 3500 4200 50  0001 C CNN
	1    3500 4200
	-1   0    0    -1  
$EndComp
$Comp
L R R15
U 1 1 58ED1779
P 4200 4050
F 0 "R15" V 4280 4050 50  0000 C CNN
F 1 "10K" V 4200 4050 50  0000 C CNN
F 2 "Resistors_SMD:R_0603" V 4130 4050 50  0001 C CNN
F 3 "" H 4200 4050 50  0001 C CNN
	1    4200 4050
	0    -1   1    0   
$EndComp
$Comp
L TEST TP38
U 1 1 58ED6DFE
P 4450 4050
F 0 "TP38" H 4450 4350 50  0000 C BNN
F 1 "TEST" H 4450 4300 50  0000 C CNN
F 2 "Measurement_Points:Measurement_Point_Round-TH_Small" H 4450 4050 50  0001 C CNN
F 3 "" H 4450 4050 50  0000 C CNN
	1    4450 4050
	-1   0    0    1   
$EndComp
$Comp
L R R14
U 1 1 58EE6D9E
P 4200 3650
F 0 "R14" V 4280 3650 50  0000 C CNN
F 1 "10K" V 4200 3650 50  0000 C CNN
F 2 "Resistors_SMD:R_0603" V 4130 3650 50  0001 C CNN
F 3 "" H 4200 3650 50  0001 C CNN
	1    4200 3650
	0    1    1    0   
$EndComp
$Comp
L USB_OTG P9
U 1 1 58FF8333
P 8400 1850
F 0 "P9" H 8200 2300 50  0000 L CNN
F 1 "USB_OTG" H 8200 2200 50  0000 L CNN
F 2 "custom:USB_Micro-B" H 8550 1800 50  0001 C CNN
F 3 "" H 8550 1800 50  0001 C CNN
	1    8400 1850
	1    0    0    -1  
$EndComp
Text GLabel 8300 2250 3    60   BiDi ~ 0
SHLD
$Comp
L GND #PWR046
U 1 1 58FF8715
P 8400 2550
F 0 "#PWR046" H 8400 2300 50  0001 C CNN
F 1 "GND" H 8400 2400 50  0000 C CNN
F 2 "" H 8400 2550 50  0001 C CNN
F 3 "" H 8400 2550 50  0001 C CNN
	1    8400 2550
	1    0    0    -1  
$EndComp
NoConn ~ 8700 1850
NoConn ~ 8700 1950
NoConn ~ 8700 2050
Text Label 9250 1650 2    60   ~ 0
UNREG_5V
Text Notes 8750 2600 0    60   ~ 0
Additional \npower \nsource
$Comp
L CONN_01X06 P5
U 1 1 5900EC34
P 4150 2200
F 0 "P5" H 4150 2550 50  0000 C CNN
F 1 "WORLD" V 4250 2200 50  0000 C CNN
F 2 "Pin_Headers:Pin_Header_Angled_1x06_Pitch2.54mm" H 4150 2200 50  0001 C CNN
F 3 "" H 4150 2200 50  0001 C CNN
	1    4150 2200
	1    0    0    -1  
$EndComp
$Comp
L C C45
U 1 1 5901696D
P 6050 5300
F 0 "C45" H 6075 5400 50  0000 L CNN
F 1 "4.7uF" H 6075 5200 50  0000 L CNN
F 2 "Capacitors_SMD:C_0805" H 6088 5150 50  0001 C CNN
F 3 "" H 6050 5300 50  0000 C CNN
	1    6050 5300
	1    0    0    -1  
$EndComp
$Comp
L GND #PWR047
U 1 1 590169E9
P 6050 5450
F 0 "#PWR047" H 6050 5200 50  0001 C CNN
F 1 "GND" H 6050 5300 50  0000 C CNN
F 2 "" H 6050 5450 50  0000 C CNN
F 3 "" H 6050 5450 50  0000 C CNN
	1    6050 5450
	1    0    0    -1  
$EndComp
$Comp
L C C47
U 1 1 5901C07A
P 7050 3600
F 0 "C47" H 7075 3700 50  0000 L CNN
F 1 "4.7uF" H 7075 3500 50  0000 L CNN
F 2 "custom:C_0603_0805" H 7088 3450 50  0001 C CNN
F 3 "" H 7050 3600 50  0000 C CNN
	1    7050 3600
	1    0    0    -1  
$EndComp
$Comp
L GND #PWR048
U 1 1 5901C803
P 7050 3750
F 0 "#PWR048" H 7050 3500 50  0001 C CNN
F 1 "GND" H 7050 3600 50  0000 C CNN
F 2 "" H 7050 3750 50  0000 C CNN
F 3 "" H 7050 3750 50  0000 C CNN
	1    7050 3750
	1    0    0    -1  
$EndComp
Text Label 7450 1750 2    60   ~ 0
UNREG_5V
Connection ~ 3900 2350
Wire Wire Line
	3900 2450 3900 2350
Wire Wire Line
	3950 2450 3900 2450
Wire Notes Line
	9400 1300 8050 1300
Wire Notes Line
	9400 2850 9400 1300
Wire Notes Line
	8050 2850 9400 2850
Wire Notes Line
	8050 1300 8050 2850
Wire Wire Line
	8700 1650 9250 1650
Wire Wire Line
	8400 2250 8400 2550
Wire Wire Line
	3500 3050 4600 3050
Connection ~ 4450 3050
Connection ~ 3500 3650
Wire Wire Line
	2950 3650 4050 3650
Wire Wire Line
	3500 3950 3600 3950
Wire Wire Line
	3500 3050 3500 3950
Connection ~ 4450 3650
Wire Wire Line
	4600 4050 4600 3850
Connection ~ 4450 4050
Connection ~ 3950 3050
Wire Wire Line
	3150 2050 3150 2100
Wire Wire Line
	3950 2050 3150 2050
Wire Wire Line
	4850 2050 4850 2000
Wire Wire Line
	4850 2350 4850 2450
Wire Wire Line
	3950 2150 3900 2150
Wire Wire Line
	3950 2250 3900 2250
Wire Notes Line
	2850 2850 7750 2850
Wire Notes Line
	7750 5700 2850 5700
Wire Notes Line
	5100 1300 5100 2850
Wire Notes Line
	7750 1300 7750 5700
Wire Wire Line
	4000 5100 4050 5100
Wire Wire Line
	4000 5000 4000 5100
Connection ~ 4000 5000
Wire Wire Line
	3550 5400 3550 5450
Wire Wire Line
	3750 5400 3750 5450
Wire Wire Line
	3550 5100 3550 5000
Connection ~ 3550 5000
Wire Wire Line
	3750 5000 3750 5100
Connection ~ 3750 5000
Wire Wire Line
	5200 5450 5200 5450
Wire Wire Line
	5050 5100 5200 5100
Wire Wire Line
	5200 5100 5200 5150
Wire Wire Line
	5600 5150 5600 5000
Wire Wire Line
	5800 5000 5800 5150
Wire Wire Line
	3750 2350 3750 2450
Wire Wire Line
	3750 2350 3950 2350
Wire Wire Line
	3150 2450 3150 2400
Wire Wire Line
	3350 5000 4050 5000
Connection ~ 5600 5000
Connection ~ 5800 5000
Wire Wire Line
	5050 5000 6400 5000
Wire Wire Line
	6950 1950 7050 1950
Wire Wire Line
	7050 1950 7050 2000
Wire Wire Line
	6950 1750 7450 1750
Wire Notes Line
	2850 5700 2850 1300
Wire Notes Line
	2850 1300 7750 1300
Wire Wire Line
	4600 3050 4600 3450
Wire Wire Line
	6100 3850 6100 4150
Wire Wire Line
	6100 3650 6400 3650
Wire Wire Line
	6400 4050 6400 4150
Wire Wire Line
	6400 3650 6400 3750
Wire Wire Line
	6100 3450 7050 3450
Wire Wire Line
	7050 3450 7050 3300
Wire Notes Line
	2850 4450 7750 4450
Connection ~ 3750 3050
Connection ~ 6750 3450
Wire Wire Line
	6300 3750 6500 3750
Connection ~ 6400 3750
Wire Wire Line
	6300 4050 6500 4050
Connection ~ 6400 4050
Wire Wire Line
	3500 4150 3500 4200
Wire Wire Line
	3500 4150 3600 4150
Wire Wire Line
	4000 4050 4050 4050
Wire Wire Line
	4350 3650 4600 3650
Wire Wire Line
	4350 4050 4600 4050
Wire Wire Line
	6050 5150 6050 5000
Connection ~ 6050 5000
Connection ~ 7050 3450
Wire Wire Line
	3950 1950 3900 1950
Wire Wire Line
	3900 1950 3900 2050
Connection ~ 3900 2050
$EndSCHEMATC
