(module 5INCH_DPI_LCD (layer F.Cu) (tedit 58B64DF7)
  (fp_text reference REF** (at 0 0.5) (layer F.SilkS)
    (effects (font (size 1 1) (thickness 0.15)))
  )
  (fp_text value 5INCH_DPI_LCD (at 0 -0.5) (layer F.Fab)
    (effects (font (size 1 1) (thickness 0.15)))
  )
  (fp_line (start -19.68 -18.83) (end -19.68 -18.83) (layer F.SilkS) (width 0.15))
  (fp_line (start -60.35 37.9) (end -60.35 -37.9) (layer F.SilkS) (width 0.15))
  (fp_line (start -60.35 37.9) (end 60.35 37.9) (layer F.SilkS) (width 0.15))
  (fp_line (start 60.35 -37.9) (end 60.35 37.9) (layer F.SilkS) (width 0.15))
  (fp_line (start -60.35 -37.9) (end 60.35 -37.9) (layer F.SilkS) (width 0.15))
  (pad 11 smd rect (at -28.255 -7.63) (size 0.35 3.54) (layers F.Cu F.Paste F.Mask))
  (pad 9 smd rect (at -29.255 -7.63) (size 0.35 3.54) (layers F.Cu F.Paste F.Mask))
  (pad 10 smd rect (at -28.755 -7.63) (size 0.35 3.54) (layers F.Cu F.Paste F.Mask))
  (pad 8 smd rect (at -29.755 -7.63) (size 0.35 3.54) (layers F.Cu F.Paste F.Mask))
  (pad 7 smd rect (at -30.255 -7.63) (size 0.35 3.54) (layers F.Cu F.Paste F.Mask))
  (pad 6 smd rect (at -30.755 -7.63) (size 0.35 3.54) (layers F.Cu F.Paste F.Mask))
  (pad 5 smd rect (at -31.255 -7.63) (size 0.35 3.54) (layers F.Cu F.Paste F.Mask))
  (pad 16 smd rect (at -25.755 -7.63) (size 0.35 3.54) (layers F.Cu F.Paste F.Mask))
  (pad 15 smd rect (at -26.255 -7.63) (size 0.35 3.54) (layers F.Cu F.Paste F.Mask))
  (pad 14 smd rect (at -26.755 -7.63) (size 0.35 3.54) (layers F.Cu F.Paste F.Mask))
  (pad 13 smd rect (at -27.255 -7.63) (size 0.35 3.54) (layers F.Cu F.Paste F.Mask))
  (pad 12 smd rect (at -27.755 -7.63) (size 0.35 3.54) (layers F.Cu F.Paste F.Mask))
  (pad 4 smd rect (at -31.755 -7.63) (size 0.35 3.54) (layers F.Cu F.Paste F.Mask))
  (pad 3 smd rect (at -32.255 -7.63) (size 0.35 3.54) (layers F.Cu F.Paste F.Mask))
  (pad 2 smd rect (at -32.755 -7.63) (size 0.35 3.54) (layers F.Cu F.Paste F.Mask))
  (pad 1 smd rect (at -33.255 -7.63) (size 0.35 3.54) (layers F.Cu F.Paste F.Mask))
  (pad 18 smd rect (at -24.755 -7.63) (size 0.35 3.54) (layers F.Cu F.Paste F.Mask))
  (pad 19 smd rect (at -24.255 -7.63) (size 0.35 3.54) (layers F.Cu F.Paste F.Mask))
  (pad 20 smd rect (at -23.755 -7.63) (size 0.35 3.54) (layers F.Cu F.Paste F.Mask))
  (pad 17 smd rect (at -25.255 -7.63) (size 0.35 3.54) (layers F.Cu F.Paste F.Mask))
  (pad 35 smd rect (at -16.255 -7.63) (size 0.35 3.54) (layers F.Cu F.Paste F.Mask))
  (pad 31 smd rect (at -18.255 -7.63) (size 0.35 3.54) (layers F.Cu F.Paste F.Mask))
  (pad 30 smd rect (at -18.755 -7.63) (size 0.35 3.54) (layers F.Cu F.Paste F.Mask))
  (pad 34 smd rect (at -16.755 -7.63) (size 0.35 3.54) (layers F.Cu F.Paste F.Mask))
  (pad 32 smd rect (at -17.755 -7.63) (size 0.35 3.54) (layers F.Cu F.Paste F.Mask))
  (pad 33 smd rect (at -17.255 -7.63) (size 0.35 3.54) (layers F.Cu F.Paste F.Mask))
  (pad 29 smd rect (at -19.255 -7.63) (size 0.35 3.54) (layers F.Cu F.Paste F.Mask))
  (pad 25 smd rect (at -21.255 -7.63) (size 0.35 3.54) (layers F.Cu F.Paste F.Mask))
  (pad 26 smd rect (at -20.755 -7.63) (size 0.35 3.54) (layers F.Cu F.Paste F.Mask))
  (pad 27 smd rect (at -20.255 -7.63) (size 0.35 3.54) (layers F.Cu F.Paste F.Mask))
  (pad 28 smd rect (at -19.755 -7.63) (size 0.35 3.54) (layers F.Cu F.Paste F.Mask))
  (pad 36 smd rect (at -15.755 -7.63) (size 0.35 3.54) (layers F.Cu F.Paste F.Mask))
  (pad 37 smd rect (at -15.255 -7.63) (size 0.35 3.54) (layers F.Cu F.Paste F.Mask))
  (pad 38 smd rect (at -14.755 -7.63) (size 0.35 3.54) (layers F.Cu F.Paste F.Mask))
  (pad 39 smd rect (at -14.255 -7.63) (size 0.35 3.54) (layers F.Cu F.Paste F.Mask))
  (pad 40 smd rect (at -13.755 -7.63) (size 0.35 3.54) (layers F.Cu F.Paste F.Mask))
  (pad 21 smd rect (at -23.255 -7.63) (size 0.35 3.54) (layers F.Cu F.Paste F.Mask))
  (pad 24 smd rect (at -21.755 -7.63) (size 0.35 3.54) (layers F.Cu F.Paste F.Mask))
  (pad 23 smd rect (at -22.255 -7.63) (size 0.35 3.54) (layers F.Cu F.Paste F.Mask))
  (pad 22 smd rect (at -22.755 -7.63) (size 0.35 3.54) (layers F.Cu F.Paste F.Mask))
  (model ${KIPRJMOD}/lib/custom.3dshapes/5INCH_DPI_LCD.wrl
    (at (xyz 0 0 0.060000))
    (scale (xyz 0.3937 0.3937 0.3937))
    (rotate (xyz 0 0 0))
  )
)
