(module LOGO (layer F.Cu)
  (at 0 0)
 (fp_text reference "G***" (at 0 0) (layer F.SilkS) hide
  (effects (font (thickness 0.3)))
  )
  (fp_text value "LOGO" (at 0.75 0) (layer F.SilkS) hide
  (effects (font (thickness 0.3)))
  )
  (fp_poly (pts (xy 3.671910 2.185406) (xy 3.724381 2.201662) (xy 3.773879 2.227080) (xy 3.819663 2.261403) (xy 3.835860 2.276653) (xy 3.878330 2.325076) (xy 3.911426 2.376325) (xy 3.935505 2.431202)
     (xy 3.950925 2.490509) (xy 3.957788 2.549960) (xy 3.957508 2.611894) (xy 3.949317 2.668730) (xy 3.932921 2.721790) (xy 3.908498 2.771588) (xy 3.892725 2.794811) (xy 3.871408 2.820890)
     (xy 3.846519 2.847863) (xy 3.820029 2.873768) (xy 3.793909 2.896645) (xy 3.770129 2.914530) (xy 3.756779 2.922593) (xy 3.711781 2.941123) (xy 3.661777 2.953079) (xy 3.609536 2.958117)
     (xy 3.557824 2.955892) (xy 3.528608 2.951016) (xy 3.477971 2.934978) (xy 3.429651 2.910063) (xy 3.384768 2.877282) (xy 3.344442 2.837647) (xy 3.309794 2.792169) (xy 3.281944 2.741859)
     (xy 3.272729 2.720013) (xy 3.261215 2.686534) (xy 3.253532 2.654618) (xy 3.249111 2.620850) (xy 3.247380 2.581814) (xy 3.247333 2.573280) (xy 3.407537 2.573280) (xy 3.408749 2.592017)
     (xy 3.416886 2.638106) (xy 3.430590 2.679216) (xy 3.449263 2.714012) (xy 3.472307 2.741162) (xy 3.477887 2.745964) (xy 3.505146 2.765546) (xy 3.531342 2.778387) (xy 3.559538 2.785462)
     (xy 3.592796 2.787749) (xy 3.608294 2.787538) (xy 3.632674 2.786249) (xy 3.651162 2.783556) (xy 3.667816 2.778579) (xy 3.686280 2.770634) (xy 3.722602 2.748618) (xy 3.751983 2.719634)
     (xy 3.774633 2.683867) (xy 3.788994 2.648808) (xy 3.797052 2.612446) (xy 3.799366 2.571746) (xy 3.798765 2.552737) (xy 3.794742 2.513495) (xy 3.786609 2.480592) (xy 3.773397 2.450912)
     (xy 3.760758 2.430605) (xy 3.733253 2.398888) (xy 3.700463 2.374739) (xy 3.663797 2.358347) (xy 3.624661 2.349904) (xy 3.584465 2.349599) (xy 3.544616 2.357624) (xy 3.506522 2.374169)
     (xy 3.479582 2.392581) (xy 3.454824 2.418560) (xy 3.434501 2.451704) (xy 3.419351 2.489929) (xy 3.410116 2.531149) (xy 3.407537 2.573280) (xy 3.247333 2.573280) (xy 3.247302 2.567722)
     (xy 3.250916 2.505855) (xy 3.261922 2.449822) (xy 3.280867 2.398217) (xy 3.308301 2.349635) (xy 3.344774 2.302670) (xy 3.355454 2.290926) (xy 3.397951 2.251007) (xy 3.442471 2.220374)
     (xy 3.490217 2.198387) (xy 3.542392 2.184405) (xy 3.561020 2.181406) (xy 3.617210 2.178568) (xy 3.671910 2.185406) )(layer F.SilkS) (width  0.010000)
  )
  (fp_poly (pts (xy -3.837095 1.869864) (xy -3.820166 1.876631) (xy -3.802005 1.889327) (xy -3.786049 1.905080) (xy -3.775732 1.921018) (xy -3.775639 1.921240) (xy -3.774627 1.926811) (xy -3.773746 1.938551)
     (xy -3.772994 1.956822) (xy -3.772367 1.981991) (xy -3.771863 2.014420) (xy -3.771478 2.054476) (xy -3.771209 2.102521) (xy -3.771052 2.158922) (xy -3.771005 2.224043) (xy -3.771065 2.298247)
     (xy -3.771228 2.381901) (xy -3.771322 2.418369) (xy -3.772647 2.901856) (xy -3.787000 2.920672) (xy -3.807341 2.940135) (xy -3.831892 2.950599) (xy -3.860849 2.952146) (xy -3.861278 2.952105)
     (xy -3.886445 2.946244) (xy -3.905883 2.933316) (xy -3.921400 2.912049) (xy -3.923304 2.908447) (xy -3.934510 2.886516) (xy -3.934510 2.214930) (xy -4.047006 2.377179) (xy -4.072176 2.413223)
     (xy -4.096052 2.446925) (xy -4.117942 2.477346) (xy -4.137155 2.503543) (xy -4.152998 2.524578) (xy -4.164782 2.539508) (xy -4.171813 2.547395) (xy -4.172761 2.548166) (xy -4.189337 2.555017)
     (xy -4.210872 2.558675) (xy -4.233116 2.558871) (xy -4.251824 2.555335) (xy -4.256192 2.553465) (xy -4.261866 2.550331) (xy -4.267290 2.546648) (xy -4.273066 2.541626) (xy -4.279799 2.534478)
     (xy -4.288093 2.524415) (xy -4.298551 2.510650) (xy -4.311778 2.492395) (xy -4.328378 2.468860) (xy -4.348955 2.439259) (xy -4.374112 2.402803) (xy -4.395767 2.371335) (xy -4.499785 2.220101)
     (xy -4.502275 2.558099) (xy -4.502866 2.630916) (xy -4.503502 2.694186) (xy -4.504192 2.748324) (xy -4.504945 2.793744) (xy -4.505772 2.830860) (xy -4.506683 2.860086) (xy -4.507688 2.881837)
     (xy -4.508795 2.896526) (xy -4.510016 2.904569) (xy -4.510562 2.906058) (xy -4.520869 2.919310) (xy -4.535725 2.933634) (xy -4.551010 2.945202) (xy -4.555487 2.947783) (xy -4.574638 2.953009)
     (xy -4.597161 2.952534) (xy -4.618524 2.946721) (xy -4.627175 2.942048) (xy -4.641680 2.929799) (xy -4.654425 2.915185) (xy -4.655303 2.913919) (xy -4.666628 2.897115) (xy -4.666628 1.923904)
     (xy -4.655422 1.907439) (xy -4.639265 1.887706) (xy -4.621835 1.876040) (xy -4.600070 1.870833) (xy -4.584451 1.870137) (xy -4.563454 1.871157) (xy -4.548935 1.874715) (xy -4.539200 1.880297)
     (xy -4.533820 1.886252) (xy -4.523376 1.899618) (xy -4.508445 1.919598) (xy -4.489603 1.945391) (xy -4.467428 1.976201) (xy -4.442495 2.011229) (xy -4.415383 2.049676) (xy -4.386666 2.090744)
     (xy -4.373237 2.110064) (xy -4.344359 2.151571) (xy -4.317151 2.190446) (xy -4.292145 2.225948) (xy -4.269870 2.257335) (xy -4.250856 2.283865) (xy -4.235633 2.304797) (xy -4.224731 2.319389)
     (xy -4.218682 2.326899) (xy -4.217634 2.327764) (xy -4.214255 2.323422) (xy -4.205745 2.311653) (xy -4.192639 2.293217) (xy -4.175474 2.268879) (xy -4.154786 2.239402) (xy -4.131111 2.205547)
     (xy -4.104985 2.168078) (xy -4.076944 2.127758) (xy -4.064104 2.109262) (xy -4.035074 2.067576) (xy -4.007419 2.028157) (xy -3.981715 1.991807) (xy -3.958541 1.959329) (xy -3.938472 1.931526)
     (xy -3.922087 1.909201) (xy -3.909962 1.893157) (xy -3.902676 1.884197) (xy -3.901249 1.882778) (xy -3.880526 1.872239) (xy -3.855329 1.868319) (xy -3.837095 1.869864) )(layer F.SilkS) (width  0.010000)
  )
  (fp_poly (pts (xy -2.847995 2.181675) (xy -2.828906 2.191254) (xy -2.811530 2.207940) (xy -2.798431 2.228914) (xy -2.794068 2.240924) (xy -2.792818 2.250580) (xy -2.791788 2.269515) (xy -2.790976 2.297826)
     (xy -2.790380 2.335613) (xy -2.790001 2.382971) (xy -2.789836 2.440001) (xy -2.789885 2.506799) (xy -2.790123 2.578411) (xy -2.790411 2.642520) (xy -2.790689 2.697428) (xy -2.790985 2.743896)
     (xy -2.791324 2.782685) (xy -2.791733 2.814554) (xy -2.792238 2.840265) (xy -2.792865 2.860577) (xy -2.793642 2.876251) (xy -2.794593 2.888047) (xy -2.795747 2.896726) (xy -2.797128 2.903048)
     (xy -2.798764 2.907774) (xy -2.800680 2.911663) (xy -2.801740 2.913512) (xy -2.819331 2.935073) (xy -2.840779 2.948454) (xy -2.864329 2.953708) (xy -2.888227 2.950884) (xy -2.910719 2.940034)
     (xy -2.930052 2.921210) (xy -2.937589 2.909548) (xy -2.949197 2.888522) (xy -2.962491 2.897896) (xy -3.004154 2.921667) (xy -3.051644 2.939076) (xy -3.102816 2.949732) (xy -3.155525 2.953248)
     (xy -3.207628 2.949233) (xy -3.226175 2.945793) (xy -3.274023 2.930575) (xy -3.320612 2.906511) (xy -3.364503 2.874716) (xy -3.404257 2.836303) (xy -3.438435 2.792385) (xy -3.451406 2.771484)
     (xy -3.474932 2.721034) (xy -3.490939 2.665810) (xy -3.499457 2.607538) (xy -3.500420 2.553115) (xy -3.341661 2.553115) (xy -3.340801 2.595960) (xy -3.333212 2.637688) (xy -3.319018 2.676913)
     (xy -3.298338 2.712248) (xy -3.271296 2.742305) (xy -3.243340 2.762702) (xy -3.205418 2.779392) (xy -3.164711 2.787398) (xy -3.123279 2.786640) (xy -3.083184 2.777038) (xy -3.065652 2.769578)
     (xy -3.030444 2.746876) (xy -3.000717 2.716834) (xy -2.977132 2.680832) (xy -2.960352 2.640249) (xy -2.951039 2.596464) (xy -2.949856 2.550854) (xy -2.951788 2.532545) (xy -2.962108 2.490072)
     (xy -2.979843 2.450110) (xy -3.003807 2.414414) (xy -3.032809 2.384739) (xy -3.065661 2.362837) (xy -3.067365 2.361987) (xy -3.081235 2.355659) (xy -3.093694 2.351631) (xy -3.107696 2.349398)
     (xy -3.126195 2.348456) (xy -3.147608 2.348294) (xy -3.181827 2.349704) (xy -3.209199 2.354614) (xy -3.232543 2.364126) (xy -3.254682 2.379347) (xy -3.275377 2.398311) (xy -3.302651 2.431751)
     (xy -3.322708 2.469623) (xy -3.335671 2.510540) (xy -3.341661 2.553115) (xy -3.500420 2.553115) (xy -3.500512 2.547946) (xy -3.494133 2.488760) (xy -3.480347 2.431709) (xy -3.459183 2.378520)
     (xy -3.444650 2.351937) (xy -3.410542 2.304587) (xy -3.369974 2.263368) (xy -3.324207 2.229248) (xy -3.274500 2.203197) (xy -3.232190 2.188668) (xy -3.202266 2.183186) (xy -3.166796 2.180451)
     (xy -3.129680 2.180481) (xy -3.094818 2.183291) (xy -3.069293 2.188025) (xy -3.042810 2.196663) (xy -3.013248 2.209048) (xy -2.984896 2.223215) (xy -2.962249 2.237051) (xy -2.948714 2.246606)
     (xy -2.941696 2.230195) (xy -2.927035 2.207117) (xy -2.906564 2.190328) (xy -2.882373 2.180909) (xy -2.856552 2.179944) (xy -2.847995 2.181675) )(layer F.SilkS) (width  0.010000)
  )
  (fp_poly (pts (xy -1.889526 1.869792) (xy -1.866743 1.877124) (xy -1.846620 1.891228) (xy -1.830904 1.911878) (xy -1.822935 1.931979) (xy -1.821921 1.940365) (xy -1.821048 1.957556) (xy -1.820315 1.983680)
     (xy -1.819720 2.018866) (xy -1.819262 2.063244) (xy -1.818941 2.116941) (xy -1.818755 2.180088) (xy -1.818704 2.252812) (xy -1.818785 2.335243) (xy -1.818990 2.424224) (xy -1.820334 2.896829)
     (xy -1.833585 2.916852) (xy -1.852589 2.937607) (xy -1.876155 2.949526) (xy -1.904020 2.952482) (xy -1.908563 2.952144) (xy -1.934614 2.945993) (xy -1.954531 2.932512) (xy -1.969920 2.910607)
     (xy -1.970067 2.910320) (xy -1.980350 2.890263) (xy -2.020239 2.911836) (xy -2.071015 2.934047) (xy -2.125026 2.948051) (xy -2.180293 2.953596) (xy -2.234836 2.950428) (xy -2.268849 2.943607)
     (xy -2.299103 2.934932) (xy -2.323565 2.925796) (xy -2.346314 2.914386) (xy -2.371425 2.898887) (xy -2.375693 2.896067) (xy -2.422413 2.859160) (xy -2.462305 2.815489) (xy -2.494905 2.765954)
     (xy -2.519752 2.711453) (xy -2.536381 2.652885) (xy -2.544331 2.591147) (xy -2.544981 2.567392) (xy -2.544669 2.562489) (xy -2.382588 2.562489) (xy -2.379913 2.604986) (xy -2.369763 2.646083)
     (xy -2.352255 2.684441) (xy -2.327504 2.718721) (xy -2.295625 2.747586) (xy -2.286107 2.754088) (xy -2.259678 2.768966) (xy -2.234362 2.778038) (xy -2.206501 2.782257) (xy -2.176306 2.782694)
     (xy -2.152931 2.781513) (xy -2.135260 2.778809) (xy -2.119051 2.773600) (xy -2.100680 2.765210) (xy -2.066414 2.743630) (xy -2.044319 2.723075) (xy -2.015572 2.684245) (xy -1.995736 2.642385)
     (xy -1.984810 2.598657) (xy -1.982793 2.554218) (xy -1.989685 2.510229) (xy -2.005485 2.467850) (xy -2.030193 2.428239) (xy -2.044520 2.411298) (xy -2.077956 2.381541) (xy -2.114452 2.360875)
     (xy -2.153339 2.349544) (xy -2.193948 2.347794) (xy -2.211618 2.350021) (xy -2.248469 2.359713) (xy -2.280320 2.375646) (xy -2.310241 2.399441) (xy -2.316233 2.405254) (xy -2.344611 2.439973)
     (xy -2.365052 2.478644) (xy -2.377673 2.519929) (xy -2.382588 2.562489) (xy -2.544669 2.562489) (xy -2.540971 2.504450) (xy -2.528687 2.446534) (xy -2.507751 2.392730) (xy -2.477782 2.342127)
     (xy -2.438401 2.293812) (xy -2.425691 2.280626) (xy -2.381407 2.242127) (xy -2.334454 2.213106) (xy -2.284155 2.193280) (xy -2.229834 2.182367) (xy -2.183902 2.179861) (xy -2.151219 2.181135)
     (xy -2.120998 2.184518) (xy -2.101726 2.188365) (xy -2.080842 2.194694) (xy -2.058001 2.203075) (xy -2.035632 2.212443) (xy -2.016165 2.221735) (xy -2.002030 2.229886) (xy -1.996524 2.234444)
     (xy -1.989477 2.240283) (xy -1.986567 2.241176) (xy -1.985484 2.236393) (xy -1.984501 2.222832) (xy -1.983649 2.201677) (xy -1.982964 2.174111) (xy -1.982478 2.141316) (xy -1.982225 2.104476)
     (xy -1.982196 2.086586) (xy -1.982160 2.042949) (xy -1.982008 2.008106) (xy -1.981674 1.980887) (xy -1.981092 1.960125) (xy -1.980194 1.944651) (xy -1.978917 1.933298) (xy -1.977192 1.924897)
     (xy -1.974955 1.918281) (xy -1.972348 1.912691) (xy -1.956381 1.890682) (xy -1.936091 1.876346) (xy -1.913224 1.869458) (xy -1.889526 1.869792) )(layer F.SilkS) (width  0.010000)
  )
  (fp_poly (pts (xy -0.814864 1.867302) (xy -0.776562 1.867757) (xy -0.740215 1.868574) (xy -0.707311 1.869753) (xy -0.679337 1.871289) (xy -0.657784 1.873183) (xy -0.646228 1.874939) (xy -0.596773 1.890388)
     (xy -0.550240 1.914676) (xy -0.507829 1.946834) (xy -0.470740 1.985891) (xy -0.440174 2.030874) (xy -0.430465 2.049431) (xy -0.415369 2.084165) (xy -0.405180 2.116903) (xy -0.399172 2.151050)
     (xy -0.396617 2.190011) (xy -0.396398 2.208804) (xy -0.396695 2.236356) (xy -0.397853 2.257108) (xy -0.400307 2.274207) (xy -0.404490 2.290805) (xy -0.410076 2.307864) (xy -0.423797 2.343081)
     (xy -0.439017 2.372209) (xy -0.458042 2.399087) (xy -0.479907 2.424080) (xy -0.509617 2.455840) (xy -0.486864 2.479243) (xy -0.463072 2.506189) (xy -0.444519 2.533451) (xy -0.430545 2.562840)
     (xy -0.420494 2.596168) (xy -0.413708 2.635245) (xy -0.409529 2.681884) (xy -0.408855 2.694123) (xy -0.406821 2.728007) (xy -0.404559 2.752239) (xy -0.402032 2.767128) (xy -0.399202 2.772980)
     (xy -0.399053 2.773041) (xy -0.386708 2.780331) (xy -0.372898 2.792938) (xy -0.360978 2.807463) (xy -0.355421 2.817264) (xy -0.348255 2.845746) (xy -0.350055 2.872856) (xy -0.359830 2.897111)
     (xy -0.376587 2.917029) (xy -0.399331 2.931129) (xy -0.427071 2.937928) (xy -0.436537 2.938322) (xy -0.468309 2.933408) (xy -0.497132 2.918994) (xy -0.519690 2.898816) (xy -0.535416 2.878393)
     (xy -0.547878 2.854968) (xy -0.557503 2.827079) (xy -0.564719 2.793265) (xy -0.569954 2.752064) (xy -0.572692 2.717687) (xy -0.575600 2.682335) (xy -0.579581 2.654934) (xy -0.585359 2.633479)
     (xy -0.593659 2.615967) (xy -0.605202 2.600392) (xy -0.620658 2.584803) (xy -0.637409 2.571584) (xy -0.658471 2.557955) (xy -0.676439 2.548290) (xy -0.688300 2.542781) (xy -0.698453 2.538707)
     (xy -0.708703 2.535821) (xy -0.720856 2.533873) (xy -0.736716 2.532616) (xy -0.758087 2.531803) (xy -0.786775 2.531186) (xy -0.803089 2.530896) (xy -0.896471 2.529263) (xy -0.896499 2.700229)
     (xy -0.896660 2.747052) (xy -0.897111 2.788935) (xy -0.897825 2.824923) (xy -0.898777 2.854063) (xy -0.899940 2.875402) (xy -0.901289 2.887985) (xy -0.901670 2.889718) (xy -0.912095 2.912505)
     (xy -0.928678 2.932879) (xy -0.946621 2.946080) (xy -0.966676 2.951990) (xy -0.990447 2.952546) (xy -1.013295 2.947822) (xy -1.020237 2.944923) (xy -1.033444 2.935503) (xy -1.046462 2.921794)
     (xy -1.050120 2.916765) (xy -1.063314 2.896830) (xy -1.064681 2.424312) (xy -1.064896 2.331487) (xy -1.064973 2.248544) (xy -1.064912 2.175410) (xy -1.064713 2.112007) (xy -1.064374 2.058260)
     (xy -1.064198 2.041960) (xy -0.896471 2.041960) (xy -0.896471 2.361534) (xy -0.785657 2.359875) (xy -0.749220 2.359267) (xy -0.721252 2.358583) (xy -0.700262 2.357677) (xy -0.684758 2.356409)
     (xy -0.673250 2.354634) (xy -0.664245 2.352209) (xy -0.656252 2.348991) (xy -0.652232 2.347071) (xy -0.623725 2.328467) (xy -0.597862 2.303191) (xy -0.577834 2.274516) (xy -0.573874 2.266689)
     (xy -0.566687 2.248440) (xy -0.562847 2.230224) (xy -0.561514 2.207608) (xy -0.561474 2.201333) (xy -0.565513 2.161434) (xy -0.577962 2.126421) (xy -0.599323 2.095123) (xy -0.612980 2.080991)
     (xy -0.626239 2.069205) (xy -0.638884 2.060046) (xy -0.652402 2.053189) (xy -0.668278 2.048305) (xy -0.687998 2.045067) (xy -0.713046 2.043149) (xy -0.744910 2.042223) (xy -0.785074 2.041962)
     (xy -0.790280 2.041960) (xy -0.896471 2.041960) (xy -1.064198 2.041960) (xy -1.063896 2.014093) (xy -1.063277 1.979429) (xy -1.062518 1.954192) (xy -1.061617 1.938307) (xy -1.060815 1.932359)
     (xy -1.050492 1.909069) (xy -1.034135 1.888941) (xy -1.014451 1.875228) (xy -1.012658 1.874440) (xy -1.002354 1.872300) (xy -0.983586 1.870537) (xy -0.957841 1.869148) (xy -0.926608 1.868132)
     (xy -0.891375 1.867487) (xy -0.853631 1.867211) (xy -0.814864 1.867302) )(layer F.SilkS) (width  0.010000)
  )
  (fp_poly (pts (xy 0.240480 2.183017) (xy 0.289489 2.193082) (xy 0.336881 2.210816) (xy 0.355873 2.220116) (xy 0.386528 2.239550) (xy 0.418447 2.265827) (xy 0.449246 2.296522) (xy 0.476539 2.329208)
     (xy 0.497940 2.361462) (xy 0.501649 2.368312) (xy 0.526463 2.426629) (xy 0.541751 2.486733) (xy 0.546230 2.523148) (xy 0.547450 2.544351) (xy 0.547020 2.558893) (xy 0.544506 2.569997)
     (xy 0.539472 2.580890) (xy 0.538105 2.583361) (xy 0.533751 2.591232) (xy 0.529708 2.597878) (xy 0.525146 2.603401) (xy 0.519232 2.607905) (xy 0.511134 2.611494) (xy 0.500020 2.614271)
     (xy 0.485058 2.616340) (xy 0.465416 2.617805) (xy 0.440263 2.618769) (xy 0.408766 2.619336) (xy 0.370094 2.619609) (xy 0.323414 2.619692) (xy 0.267894 2.619688) (xy 0.246383 2.619686)
     (xy -0.006226 2.619686) (xy -0.003051 2.635560) (xy 0.005580 2.662771) (xy 0.020017 2.691716) (xy 0.038043 2.718221) (xy 0.045336 2.726743) (xy 0.078715 2.755725) (xy 0.118011 2.777018)
     (xy 0.162429 2.790296) (xy 0.211174 2.795232) (xy 0.211666 2.795238) (xy 0.254561 2.792470) (xy 0.292634 2.782568) (xy 0.328780 2.764698) (xy 0.337861 2.758884) (xy 0.361725 2.744178)
     (xy 0.381164 2.735516) (xy 0.398913 2.732014) (xy 0.417704 2.732789) (xy 0.418368 2.732876) (xy 0.440643 2.740477) (xy 0.458391 2.755439) (xy 0.470330 2.775711) (xy 0.475180 2.799237)
     (xy 0.472796 2.820168) (xy 0.463799 2.838233) (xy 0.446918 2.858037) (xy 0.423765 2.878317) (xy 0.395952 2.897808) (xy 0.365092 2.915248) (xy 0.334115 2.928879) (xy 0.281883 2.943945)
     (xy 0.225844 2.951904) (xy 0.169120 2.952566) (xy 0.114830 2.945738) (xy 0.102791 2.943032) (xy 0.049196 2.924839) (xy -0.000710 2.897879) (xy -0.046136 2.862918) (xy -0.086291 2.820719)
     (xy -0.120383 2.772047) (xy -0.147620 2.717666) (xy -0.157305 2.691902) (xy -0.163277 2.672781) (xy -0.167428 2.654844) (xy -0.170185 2.635189) (xy -0.171975 2.610913) (xy -0.173042 2.584823)
     (xy -0.171883 2.522331) (xy -0.167242 2.490196) (xy -0.014246 2.490196) (xy 0.409063 2.490196) (xy 0.405720 2.478990) (xy 0.394991 2.455351) (xy 0.377190 2.429620) (xy 0.354293 2.403870)
     (xy 0.328275 2.380175) (xy 0.301113 2.360607) (xy 0.283804 2.351094) (xy 0.238671 2.334503) (xy 0.194390 2.327562) (xy 0.151585 2.330174) (xy 0.110880 2.342241) (xy 0.072897 2.363667)
     (xy 0.043985 2.388389) (xy 0.014950 2.423300) (xy -0.004699 2.459883) (xy -0.009959 2.475246) (xy -0.014246 2.490196) (xy -0.167242 2.490196) (xy -0.163754 2.466051) (xy -0.148168 2.414636)
     (xy -0.124637 2.366734) (xy -0.092674 2.320996) (xy -0.067309 2.291961) (xy -0.025011 2.252017) (xy 0.018411 2.221453) (xy 0.064267 2.199690) (xy 0.113869 2.186151) (xy 0.168531 2.180255)
     (xy 0.186764 2.179888) (xy 0.240480 2.183017) )(layer F.SilkS) (width  0.010000)
  )
  (fp_poly (pts (xy 1.071258 2.183879) (xy 1.109199 2.192109) (xy 1.113117 2.193323) (xy 1.141977 2.204204) (xy 1.173068 2.218608) (xy 1.203606 2.235016) (xy 1.230810 2.251907) (xy 1.251897 2.267765)
     (xy 1.255538 2.271058) (xy 1.272153 2.292572) (xy 1.281115 2.316903) (xy 1.282753 2.342119) (xy 1.277394 2.366288) (xy 1.265365 2.387478) (xy 1.246994 2.403755) (xy 1.231859 2.410770)
     (xy 1.213642 2.414430) (xy 1.194988 2.412719) (xy 1.173819 2.405103) (xy 1.148058 2.391049) (xy 1.143064 2.387976) (xy 1.102495 2.365342) (xy 1.065871 2.350832) (xy 1.031831 2.344137)
     (xy 0.999012 2.344951) (xy 0.975120 2.350089) (xy 0.954250 2.358686) (xy 0.935422 2.370932) (xy 0.920789 2.384966) (xy 0.912503 2.398929) (xy 0.911411 2.405145) (xy 0.914075 2.417223)
     (xy 0.922580 2.428249) (xy 0.937703 2.438626) (xy 0.960216 2.448754) (xy 0.990895 2.459035) (xy 1.030513 2.469869) (xy 1.041759 2.472675) (xy 1.099152 2.488066) (xy 1.147560 2.504062)
     (xy 1.187957 2.521261) (xy 1.221319 2.540262) (xy 1.248622 2.561663) (xy 1.270840 2.586060) (xy 1.288949 2.614053) (xy 1.296405 2.628806) (xy 1.309782 2.668677) (xy 1.314677 2.711324)
     (xy 1.311202 2.754490) (xy 1.299473 2.795920) (xy 1.286642 2.822290) (xy 1.264475 2.851995) (xy 1.234477 2.880281) (xy 1.198779 2.905695) (xy 1.159511 2.926788) (xy 1.118802 2.942108)
     (xy 1.105571 2.945613) (xy 1.075687 2.950374) (xy 1.040305 2.952505) (xy 1.003536 2.951995) (xy 0.969491 2.948832) (xy 0.953745 2.946030) (xy 0.912385 2.933874) (xy 0.868978 2.915719)
     (xy 0.826617 2.893190) (xy 0.788396 2.867910) (xy 0.760646 2.844678) (xy 0.742767 2.821427) (xy 0.734196 2.795880) (xy 0.735001 2.769463) (xy 0.745249 2.743601) (xy 0.755177 2.729848)
     (xy 0.775135 2.711609) (xy 0.796437 2.702463) (xy 0.819725 2.702419) (xy 0.845641 2.711489) (xy 0.874826 2.729683) (xy 0.877709 2.731824) (xy 0.904776 2.751011) (xy 0.928392 2.764725)
     (xy 0.951983 2.774698) (xy 0.977409 2.782266) (xy 1.008499 2.787280) (xy 1.040136 2.787170) (xy 1.070781 2.782512) (xy 1.098893 2.773884) (xy 1.122931 2.761862) (xy 1.141353 2.747024)
     (xy 1.152620 2.729946) (xy 1.155451 2.715589) (xy 1.150764 2.697858) (xy 1.136630 2.681586) (xy 1.112941 2.666704) (xy 1.079586 2.653145) (xy 1.036458 2.640842) (xy 1.033431 2.640112)
     (xy 0.982717 2.627400) (xy 0.940579 2.615372) (xy 0.905711 2.603479) (xy 0.876806 2.591167) (xy 0.852555 2.577886) (xy 0.831653 2.563084) (xy 0.814165 2.547558) (xy 0.785800 2.513776)
     (xy 0.766402 2.477428) (xy 0.755613 2.439454) (xy 0.753077 2.400796) (xy 0.758438 2.362394) (xy 0.771338 2.325188) (xy 0.791421 2.290119) (xy 0.818330 2.258128) (xy 0.851709 2.230154)
     (xy 0.891200 2.207139) (xy 0.936446 2.190023) (xy 0.951255 2.186140) (xy 0.988133 2.180710) (xy 1.029518 2.180018) (xy 1.071258 2.183879) )(layer F.SilkS) (width  0.010000)
  )
  (fp_poly (pts (xy 1.620363 2.181949) (xy 1.643858 2.190542) (xy 1.664546 2.207140) (xy 1.674405 2.220260) (xy 1.685862 2.238686) (xy 1.685862 2.896823) (xy 1.671836 2.918019) (xy 1.658967 2.933342)
     (xy 1.644535 2.944485) (xy 1.640869 2.946294) (xy 1.622594 2.951180) (xy 1.601713 2.952884) (xy 1.583310 2.951119) (xy 1.578784 2.949779) (xy 1.557569 2.937170) (xy 1.540029 2.918068)
     (xy 1.533489 2.906551) (xy 1.531616 2.901976) (xy 1.530013 2.896612) (xy 1.528657 2.889697) (xy 1.527529 2.880464) (xy 1.526607 2.868149) (xy 1.525870 2.851988) (xy 1.525296 2.831216)
     (xy 1.524865 2.805068) (xy 1.524555 2.772780) (xy 1.524346 2.733586) (xy 1.524216 2.686723) (xy 1.524144 2.631425) (xy 1.524109 2.567202) (xy 1.524000 2.248267) (xy 1.535206 2.226085)
     (xy 1.551483 2.203429) (xy 1.572331 2.188470) (xy 1.595906 2.181284) (xy 1.620363 2.181949) )(layer F.SilkS) (width  0.010000)
  )
  (fp_poly (pts (xy 2.217091 2.182105) (xy 2.250545 2.187969) (xy 2.284555 2.198585) (xy 2.321904 2.214720) (xy 2.341254 2.224352) (xy 2.377758 2.245160) (xy 2.405959 2.265659) (xy 2.425297 2.285393)
     (xy 2.433569 2.299233) (xy 2.440224 2.326408) (xy 2.438299 2.353076) (xy 2.428493 2.377206) (xy 2.411504 2.396767) (xy 2.396800 2.406138) (xy 2.379440 2.412643) (xy 2.362578 2.414181)
     (xy 2.344173 2.410351) (xy 2.322185 2.400748) (xy 2.296917 2.386394) (xy 2.262676 2.367156) (xy 2.233160 2.354222) (xy 2.206084 2.346817) (xy 2.179163 2.344168) (xy 2.172250 2.344157)
     (xy 2.145998 2.347196) (xy 2.121135 2.354783) (xy 2.099292 2.365842) (xy 2.082098 2.379300) (xy 2.071184 2.394081) (xy 2.068181 2.409111) (xy 2.068753 2.412385) (xy 2.074576 2.423154)
     (xy 2.086954 2.433499) (xy 2.106598 2.443749) (xy 2.134224 2.454234) (xy 2.170543 2.465282) (xy 2.200960 2.473385) (xy 2.250260 2.486924) (xy 2.294137 2.500911) (xy 2.331477 2.514927)
     (xy 2.361168 2.528554) (xy 2.382098 2.541375) (xy 2.382256 2.541495) (xy 2.416285 2.572943) (xy 2.442861 2.609103) (xy 2.461411 2.648654) (xy 2.471358 2.690273) (xy 2.472126 2.732638)
     (xy 2.470610 2.744501) (xy 2.458801 2.787988) (xy 2.438598 2.827531) (xy 2.410958 2.862617) (xy 2.376840 2.892735) (xy 2.337200 2.917369) (xy 2.292996 2.936009) (xy 2.245186 2.948140)
     (xy 2.194727 2.953251) (xy 2.142577 2.950827) (xy 2.099982 2.943045) (xy 2.067727 2.933084) (xy 2.033690 2.919045) (xy 1.999730 2.902036) (xy 1.967709 2.883163) (xy 1.939489 2.863533)
     (xy 1.916930 2.844253) (xy 1.901895 2.826430) (xy 1.900770 2.824587) (xy 1.892662 2.801761) (xy 1.891981 2.776432) (xy 1.898078 2.751505) (xy 1.910308 2.729881) (xy 1.924874 2.716377)
     (xy 1.948398 2.705003) (xy 1.971914 2.702328) (xy 1.996601 2.708497) (xy 2.023640 2.723657) (xy 2.031948 2.729649) (xy 2.077027 2.758912) (xy 2.121293 2.778253) (xy 2.164767 2.787679)
     (xy 2.207470 2.787195) (xy 2.236537 2.781074) (xy 2.268299 2.768996) (xy 2.291852 2.754049) (xy 2.306707 2.736700) (xy 2.312371 2.717416) (xy 2.311947 2.709214) (xy 2.304908 2.692895)
     (xy 2.288644 2.677713) (xy 2.262981 2.663574) (xy 2.227746 2.650387) (xy 2.182768 2.638056) (xy 2.178301 2.637001) (xy 2.126807 2.624018) (xy 2.083863 2.610913) (xy 2.048071 2.597040)
     (xy 2.018035 2.581751) (xy 1.992357 2.564401) (xy 1.969640 2.544342) (xy 1.962745 2.537220) (xy 1.938456 2.507282) (xy 1.922584 2.477292) (xy 1.913989 2.444379) (xy 1.911530 2.408019)
     (xy 1.916113 2.362866) (xy 1.929486 2.321321) (xy 1.950946 2.283977) (xy 1.979789 2.251429) (xy 2.015312 2.224270) (xy 2.056811 2.203094) (xy 2.103583 2.188495) (xy 2.154924 2.181067)
     (xy 2.181411 2.180224) (xy 2.217091 2.182105) )(layer F.SilkS) (width  0.010000)
  )
  (fp_poly (pts (xy 2.820518 1.869046) (xy 2.846107 1.875192) (xy 2.867162 1.889186) (xy 2.882402 1.907439) (xy 2.885847 1.912843) (xy 2.888503 1.918536) (xy 2.890472 1.925821) (xy 2.891856 1.935998)
     (xy 2.892759 1.950368) (xy 2.893283 1.970234) (xy 2.893530 1.996896) (xy 2.893604 2.031656) (xy 2.893607 2.049486) (xy 2.893607 2.175067) (xy 2.924960 2.177584) (xy 2.954315 2.182224)
     (xy 2.976570 2.191504) (xy 2.993950 2.206567) (xy 3.001774 2.217026) (xy 3.013062 2.242408) (xy 3.015504 2.269182) (xy 3.009573 2.295221) (xy 2.995744 2.318402) (xy 2.975222 2.336151)
     (xy 2.954472 2.344677) (xy 2.926931 2.349429) (xy 2.925617 2.349539) (xy 2.893503 2.352117) (xy 2.894800 2.566517) (xy 2.896098 2.780917) (xy 2.913347 2.785386) (xy 2.929656 2.791436)
     (xy 2.944047 2.799433) (xy 2.957443 2.813463) (xy 2.968903 2.833289) (xy 2.976386 2.854749) (xy 2.978165 2.869033) (xy 2.974019 2.892672) (xy 2.963251 2.915941) (xy 2.947938 2.934736)
     (xy 2.942858 2.938825) (xy 2.922488 2.948128) (xy 2.896581 2.952360) (xy 2.868250 2.951394) (xy 2.840606 2.945099) (xy 2.835619 2.943263) (xy 2.801962 2.924729) (xy 2.773170 2.898051)
     (xy 2.750395 2.864326) (xy 2.748114 2.859844) (xy 2.731745 2.826605) (xy 2.730274 2.588675) (xy 2.728804 2.350745) (xy 2.707862 2.350626) (xy 2.673553 2.347141) (xy 2.646618 2.337145)
     (xy 2.633458 2.327487) (xy 2.615090 2.304148) (xy 2.605797 2.278221) (xy 2.605610 2.251296) (xy 2.614560 2.224959) (xy 2.630976 2.202529) (xy 2.650565 2.187585) (xy 2.675063 2.179106)
     (xy 2.705598 2.176459) (xy 2.729255 2.176431) (xy 2.729255 2.055195) (xy 2.729291 2.017209) (xy 2.729475 1.987799) (xy 2.729917 1.965580) (xy 2.730729 1.949165) (xy 2.732022 1.937169)
     (xy 2.733906 1.928208) (xy 2.736493 1.920896) (xy 2.739895 1.913847) (xy 2.740723 1.912271) (xy 2.757759 1.890051) (xy 2.780567 1.875252) (xy 2.807306 1.868871) (xy 2.820518 1.869046) )(layer F.SilkS) (width  0.010000)
  )
  (fp_poly (pts (xy 4.593518 2.182246) (xy 4.617457 2.185627) (xy 4.635525 2.191585) (xy 4.640119 2.194383) (xy 4.659379 2.214409) (xy 4.670655 2.238593) (xy 4.673566 2.264817) (xy 4.667729 2.290965)
     (xy 4.660136 2.305335) (xy 4.647220 2.321441) (xy 4.632163 2.332214) (xy 4.612332 2.339012) (xy 4.587155 2.342973) (xy 4.551217 2.350101) (xy 4.518897 2.363626) (xy 4.489429 2.384232)
     (xy 4.462045 2.412605) (xy 4.435977 2.449432) (xy 4.410457 2.495399) (xy 4.405649 2.505137) (xy 4.380255 2.557431) (xy 4.377764 2.727141) (xy 4.375274 2.896850) (xy 4.362023 2.916862)
     (xy 4.344116 2.936045) (xy 4.321598 2.948500) (xy 4.296849 2.953676) (xy 4.272248 2.951017) (xy 4.253204 2.942166) (xy 4.239225 2.930785) (xy 4.227195 2.918046) (xy 4.226320 2.916899)
     (xy 4.224272 2.913974) (xy 4.222512 2.910650) (xy 4.221017 2.906194) (xy 4.219767 2.899878) (xy 4.218739 2.890971) (xy 4.217911 2.878742) (xy 4.217263 2.862461) (xy 4.216771 2.841397)
     (xy 4.216415 2.814821) (xy 4.216172 2.782001) (xy 4.216022 2.742207) (xy 4.215941 2.694709) (xy 4.215908 2.638776) (xy 4.215902 2.573678) (xy 4.215902 2.567392) (xy 4.215907 2.501440)
     (xy 4.215936 2.444718) (xy 4.216012 2.396496) (xy 4.216156 2.356043) (xy 4.216389 2.322630) (xy 4.216734 2.295525) (xy 4.217213 2.273999) (xy 4.217846 2.257320) (xy 4.218657 2.244759)
     (xy 4.219666 2.235585) (xy 4.220896 2.229067) (xy 4.222368 2.224475) (xy 4.224103 2.221079) (xy 4.226125 2.218148) (xy 4.226320 2.217884) (xy 4.237672 2.205472) (xy 4.251796 2.193533)
     (xy 4.253712 2.192176) (xy 4.265849 2.185258) (xy 4.278361 2.182267) (xy 4.295569 2.182291) (xy 4.299390 2.182538) (xy 4.327707 2.188476) (xy 4.349658 2.201988) (xy 4.365429 2.223248)
     (xy 4.375209 2.252429) (xy 4.375282 2.252785) (xy 4.378156 2.266883) (xy 4.397758 2.249174) (xy 4.418502 2.233573) (xy 4.445679 2.217590) (xy 4.475987 2.202938) (xy 4.506120 2.191329)
     (xy 4.514253 2.188805) (xy 4.539138 2.183713) (xy 4.566486 2.181567) (xy 4.593518 2.182246) )(layer F.SilkS) (width  0.010000)
  )
  (fp_poly (pts (xy 1.639899 1.876774) (xy 1.659832 1.891769) (xy 1.675201 1.913302) (xy 1.684572 1.940537) (xy 1.685896 1.948829) (xy 1.686425 1.980612) (xy 1.680570 2.009932) (xy 1.669074 2.034849)
     (xy 1.652685 2.053420) (xy 1.643384 2.059467) (xy 1.622023 2.065912) (xy 1.597567 2.066427) (xy 1.574458 2.061225) (xy 1.563334 2.055616) (xy 1.543944 2.036904) (xy 1.530801 2.011300)
     (xy 1.524488 1.980107) (xy 1.524000 1.967772) (xy 1.527264 1.934654) (xy 1.537312 1.908380) (xy 1.554531 1.888157) (xy 1.567061 1.879408) (xy 1.592079 1.869756) (xy 1.616837 1.869158)
     (xy 1.639899 1.876774) )(layer F.SilkS) (width  0.010000)
  )
  (fp_poly (pts (xy 0.040668 -2.956015) (xy 0.088808 -2.955361) (xy 0.132953 -2.954043) (xy 0.171132 -2.952049) (xy 0.201373 -2.949366) (xy 0.201706 -2.949326) (xy 0.344331 -2.927742) (xy 0.482088 -2.897547)
     (xy 0.615335 -2.858608) (xy 0.744433 -2.810792) (xy 0.869740 -2.753965) (xy 0.991618 -2.687995) (xy 1.109090 -2.613656) (xy 1.211148 -2.538987) (xy 1.310688 -2.455716) (xy 1.406415 -2.365126)
     (xy 1.497037 -2.268500) (xy 1.581258 -2.167122) (xy 1.641678 -2.085569) (xy 1.705072 -1.988979) (xy 1.765044 -1.885100) (xy 1.820409 -1.776347) (xy 1.869984 -1.665137) (xy 1.912585 -1.553885)
     (xy 1.934066 -1.488894) (xy 1.957295 -1.408500) (xy 1.978118 -1.325533) (xy 1.995890 -1.242953) (xy 2.009961 -1.163719) (xy 2.018158 -1.104402) (xy 2.023870 -1.055844) (xy 3.927931 -1.055844)
     (xy 3.950891 -1.085409) (xy 3.983685 -1.121086) (xy 4.024002 -1.154366) (xy 4.069439 -1.183688) (xy 4.117591 -1.207491) (xy 4.163608 -1.223556) (xy 4.189310 -1.228451) (xy 4.221700 -1.231475)
     (xy 4.257684 -1.232633) (xy 4.294167 -1.231927) (xy 4.328054 -1.229362) (xy 4.356250 -1.224939) (xy 4.362823 -1.223336) (xy 4.422199 -1.202211) (xy 4.476949 -1.172608) (xy 4.526353 -1.135213)
     (xy 4.569692 -1.090711) (xy 4.606248 -1.039787) (xy 4.635300 -0.983127) (xy 4.646807 -0.952805) (xy 4.654199 -0.929685) (xy 4.659204 -0.910020) (xy 4.662398 -0.890358) (xy 4.664361 -0.867253)
     (xy 4.665538 -0.841031) (xy 4.666129 -0.805129) (xy 4.664911 -0.775653) (xy 4.661685 -0.749198) (xy 4.659337 -0.736443) (xy 4.641980 -0.674958) (xy 4.615996 -0.617876) (xy 4.582016 -0.565918)
     (xy 4.540668 -0.519806) (xy 4.492580 -0.480261) (xy 4.438384 -0.448003) (xy 4.389781 -0.427480) (xy 4.368360 -0.420420) (xy 4.349556 -0.415627) (xy 4.330044 -0.412539) (xy 4.306500 -0.410599)
     (xy 4.283113 -0.409517) (xy 4.223484 -0.410360) (xy 4.169581 -0.418029) (xy 4.119410 -0.433059) (xy 4.070974 -0.455987) (xy 4.040678 -0.474577) (xy 4.015998 -0.493154) (xy 3.988906 -0.517082)
     (xy 3.962500 -0.543417) (xy 3.939878 -0.569211) (xy 3.936113 -0.574003) (xy 3.925585 -0.587712) (xy 2.024529 -0.585196) (xy 2.020553 -0.552824) (xy 1.998128 -0.408795) (xy 1.966774 -0.267870)
     (xy 1.926771 -0.130425) (xy 1.878397 0.003163) (xy 1.821932 0.132518) (xy 1.757655 0.257262) (xy 1.685848 0.377018) (xy 1.606787 0.491411) (xy 1.520755 0.600064) (xy 1.428029 0.702599)
     (xy 1.328890 0.798640) (xy 1.223616 0.887811) (xy 1.112488 0.969734) (xy 0.995786 1.044034) (xy 0.873788 1.110332) (xy 0.746774 1.168253) (xy 0.741885 1.170270) (xy 0.641634 1.208050)
     (xy 0.537557 1.240797) (xy 0.431707 1.268045) (xy 0.326142 1.289328) (xy 0.222917 1.304180) (xy 0.124088 1.312135) (xy 0.114549 1.312532) (xy 0.086785 1.313619) (xy 0.059937 1.314729)
     (xy 0.036945 1.315738) (xy 0.020753 1.316520) (xy 0.019921 1.316564) (xy 0.005558 1.316853) (xy -0.016364 1.316689) (xy -0.043455 1.316118) (xy -0.073327 1.315185) (xy -0.092138 1.314448)
     (xy -0.226735 1.303774) (xy -0.360348 1.283373) (xy -0.492455 1.253467) (xy -0.622535 1.214276) (xy -0.750066 1.166025) (xy -0.874526 1.108934) (xy -0.995395 1.043226) (xy -1.112149 0.969123)
     (xy -1.224269 0.886848) (xy -1.331232 0.796622) (xy -1.351584 0.777991) (xy -1.451077 0.678952) (xy -1.543952 0.572780) (xy -1.629850 0.460089) (xy -1.708411 0.341493) (xy -1.779278 0.217608)
     (xy -1.842092 0.089047) (xy -1.896493 -0.043575) (xy -1.942124 -0.179644) (xy -1.969737 -0.280988) (xy -1.982983 -0.338371) (xy -1.995587 -0.399751) (xy -2.006857 -0.461423) (xy -2.016100 -0.519679)
     (xy -2.020553 -0.552824) (xy -2.024224 -0.582706) (xy -1.866109 -0.582706) (xy -1.859463 -0.534147) (xy -1.835912 -0.397510) (xy -1.803135 -0.263234) (xy -1.761437 -0.131861) (xy -1.711125 -0.003932)
     (xy -1.652504 0.120010) (xy -1.585878 0.239425) (xy -1.511554 0.353771) (xy -1.429838 0.462506) (xy -1.341034 0.565087) (xy -1.245448 0.660975) (xy -1.143386 0.749627) (xy -1.128898 0.761192)
     (xy -1.018905 0.841856) (xy -0.904339 0.913745) (xy -0.785548 0.976727) (xy -0.662878 1.030666) (xy -0.536677 1.075429) (xy -0.407292 1.110880) (xy -0.275070 1.136886) (xy -0.140357 1.153311)
     (xy -0.110326 1.155632) (xy -0.071801 1.157386) (xy -0.026223 1.157975) (xy 0.023577 1.157471) (xy 0.074767 1.155947) (xy 0.124517 1.153474) (xy 0.169994 1.150123) (xy 0.191745 1.147978)
     (xy 0.317454 1.129936) (xy 0.439194 1.103678) (xy 0.558393 1.068793) (xy 0.676477 1.024867) (xy 0.784411 0.976572) (xy 0.903702 0.913502) (xy 1.017912 0.842023) (xy 1.126676 0.762496)
     (xy 1.229630 0.675284) (xy 1.326411 0.580751) (xy 1.416653 0.479260) (xy 1.499992 0.371173) (xy 1.576064 0.256853) (xy 1.644505 0.136664) (xy 1.662207 0.102098) (xy 1.716344 -0.016062)
     (xy 1.763622 -0.139720) (xy 1.803394 -0.266798) (xy 1.835018 -0.395214) (xy 1.857847 -0.522889) (xy 1.859431 -0.534147) (xy 1.866108 -0.582706) (xy 1.824587 -0.582706) (xy 1.700829 -0.275167)
     (xy 1.664087 -0.183891) (xy 1.630835 -0.101375) (xy 1.600858 -0.027132) (xy 1.573942 0.039323) (xy 1.549869 0.098478) (xy 1.528427 0.150818) (xy 1.509399 0.196829) (xy 1.492570 0.236999)
     (xy 1.477724 0.271812) (xy 1.464648 0.301756) (xy 1.453126 0.327316) (xy 1.442942 0.348979) (xy 1.433881 0.367232) (xy 1.425729 0.382559) (xy 1.418269 0.395448) (xy 1.411288 0.406386)
     (xy 1.404569 0.415857) (xy 1.397898 0.424348) (xy 1.391059 0.432347) (xy 1.384583 0.439525) (xy 1.350041 0.470216) (xy 1.310971 0.492698) (xy 1.268673 0.506838) (xy 1.224448 0.512503)
     (xy 1.179596 0.509562) (xy 1.135417 0.497881) (xy 1.093212 0.477328) (xy 1.082396 0.470290) (xy 1.050587 0.442703) (xy 1.022673 0.406368) (xy 0.998530 0.361091) (xy 0.979508 0.311274)
     (xy 0.972458 0.288892) (xy 0.963637 0.259569) (xy 0.952990 0.223112) (xy 0.940463 0.179322) (xy 0.926004 0.128005) (xy 0.909557 0.068964) (xy 0.891069 0.002003) (xy 0.870487 -0.073074)
     (xy 0.847757 -0.156462) (xy 0.822824 -0.248360) (xy 0.795635 -0.348961) (xy 0.766137 -0.458462) (xy 0.734274 -0.577060) (xy 0.699995 -0.704951) (xy 0.672070 -0.809314) (xy 0.656560 -0.867222)
     (xy 0.641749 -0.922323) (xy 0.627845 -0.973862) (xy 0.615053 -1.021083) (xy 0.603581 -1.063228) (xy 0.593634 -1.099542) (xy 0.585419 -1.129269) (xy 0.579142 -1.151653) (xy 0.575011 -1.165937)
     (xy 0.573231 -1.171366) (xy 0.573222 -1.171378) (xy 0.570961 -1.167524) (xy 0.565547 -1.155177) (xy 0.557312 -1.135172) (xy 0.546585 -1.108349) (xy 0.533696 -1.075544) (xy 0.518977 -1.037596)
     (xy 0.502757 -0.995341) (xy 0.485366 -0.949618) (xy 0.476007 -0.924848) (xy 0.440007 -0.829420) (xy 0.407282 -0.742857) (xy 0.377626 -0.664691) (xy 0.350838 -0.594452) (xy 0.326714 -0.531671)
     (xy 0.305050 -0.475880) (xy 0.285642 -0.426610) (xy 0.268289 -0.383392) (xy 0.252785 -0.345757) (xy 0.238928 -0.313236) (xy 0.226514 -0.285360) (xy 0.215339 -0.261661) (xy 0.205202 -0.241669)
     (xy 0.195897 -0.224916) (xy 0.187221 -0.210933) (xy 0.178972 -0.199250) (xy 0.170945 -0.189400) (xy 0.162938 -0.180913) (xy 0.154746 -0.173319) (xy 0.147220 -0.167002) (xy 0.109185 -0.141998)
     (xy 0.067774 -0.125079) (xy 0.024435 -0.116175) (xy -0.019386 -0.115218) (xy -0.062242 -0.122139) (xy -0.102686 -0.136869) (xy -0.139271 -0.159339) (xy -0.163847 -0.181812) (xy -0.171296 -0.190107)
     (xy -0.178485 -0.198709) (xy -0.185597 -0.208053) (xy -0.192814 -0.218577) (xy -0.200317 -0.230718) (xy -0.208288 -0.244913) (xy -0.216909 -0.261599) (xy -0.226363 -0.281212) (xy -0.236831 -0.304189)
     (xy -0.248495 -0.330968) (xy -0.261537 -0.361985) (xy -0.276139 -0.397677) (xy -0.292483 -0.438482) (xy -0.310751 -0.484835) (xy -0.331124 -0.537174) (xy -0.353785 -0.595935) (xy -0.378916 -0.661556)
     (xy -0.406699 -0.734474) (xy -0.437315 -0.815125) (xy -0.470947 -0.903947) (xy -0.507776 -1.001375) (xy -0.533390 -1.069191) (xy -0.545109 -1.100108) (xy -0.555621 -1.127612) (xy -0.564433 -1.150434)
     (xy -0.571054 -1.167307) (xy -0.574991 -1.176960) (xy -0.575881 -1.178760) (xy -0.577262 -1.173926) (xy -0.581019 -1.160211) (xy -0.586951 -1.138356) (xy -0.594859 -1.109100) (xy -0.604544 -1.073186)
     (xy -0.615806 -1.031354) (xy -0.628445 -0.984345) (xy -0.642262 -0.932899) (xy -0.657057 -0.877758) (xy -0.672631 -0.819663) (xy -0.674737 -0.811804) (xy -0.708459 -0.685999) (xy -0.739735 -0.569454)
     (xy -0.768670 -0.461802) (xy -0.795366 -0.362672) (xy -0.819929 -0.271697) (xy -0.842461 -0.188508) (xy -0.863068 -0.112737) (xy -0.881853 -0.044015) (xy -0.898919 0.018027) (xy -0.914371 0.073757)
     (xy -0.928313 0.123543) (xy -0.940849 0.167754) (xy -0.952083 0.206759) (xy -0.962118 0.240927) (xy -0.971059 0.270625) (xy -0.979009 0.296223) (xy -0.986073 0.318088) (xy -0.992355 0.336590)
     (xy -0.997957 0.352097) (xy -1.002986 0.364977) (xy -1.007543 0.375600) (xy -1.011734 0.384333) (xy -1.012587 0.385980) (xy -1.038623 0.425393) (xy -1.071343 0.458322) (xy -1.109474 0.484048)
     (xy -1.151743 0.501854) (xy -1.196879 0.511021) (xy -1.235138 0.511588) (xy -1.283396 0.503586) (xy -1.327124 0.486721) (xy -1.366199 0.461057) (xy -1.400497 0.426656) (xy -1.401179 0.425823)
     (xy -1.407402 0.418052) (xy -1.413344 0.410172) (xy -1.419238 0.401653) (xy -1.425312 0.391967) (xy -1.431800 0.380585) (xy -1.438930 0.366980) (xy -1.446933 0.350621) (xy -1.456041 0.330981)
     (xy -1.466484 0.307531) (xy -1.478493 0.279742) (xy -1.492297 0.247085) (xy -1.508129 0.209033) (xy -1.526219 0.165056) (xy -1.546797 0.114625) (xy -1.570094 0.057212) (xy -1.596341 -0.007711)
     (xy -1.625769 -0.080674) (xy -1.658607 -0.162205) (xy -1.668495 -0.186765) (xy -1.691797 -0.244629) (xy -1.714131 -0.300041) (xy -1.735200 -0.352273) (xy -1.754712 -0.400598) (xy -1.772372 -0.444290)
     (xy -1.787886 -0.482619) (xy -1.800959 -0.514859) (xy -1.811296 -0.540283) (xy -1.818605 -0.558163) (xy -1.822590 -0.567771) (xy -1.823129 -0.569010) (xy -1.829393 -0.578493) (xy -1.838897 -0.582254)
     (xy -1.847756 -0.582706) (xy -1.866109 -0.582706) (xy -2.024224 -0.582706) (xy -2.024530 -0.585196) (xy -2.973042 -0.586454) (xy -3.921555 -0.587712) (xy -3.960916 -0.545253) (xy -4.004502 -0.502748)
     (xy -4.048773 -0.469060) (xy -4.095486 -0.443104) (xy -4.146393 -0.423795) (xy -4.166098 -0.418258) (xy -4.202681 -0.411539) (xy -4.244665 -0.408237) (xy -4.288070 -0.408419) (xy -4.328915 -0.412154)
     (xy -4.346069 -0.415151) (xy -4.403965 -0.432205) (xy -4.458565 -0.458130) (xy -4.508905 -0.492111) (xy -4.554017 -0.533334) (xy -4.592936 -0.580985) (xy -4.624696 -0.634249) (xy -4.636419 -0.659889)
     (xy -4.650668 -0.698849) (xy -4.659997 -0.736736) (xy -4.664916 -0.776690) (xy -4.665933 -0.821852) (xy -4.665927 -0.822115) (xy -4.439244 -0.822115) (xy -4.435653 -0.782074) (xy -4.424529 -0.747452)
     (xy -4.405133 -0.716380) (xy -4.391016 -0.700479) (xy -4.357470 -0.672696) (xy -4.320885 -0.654325) (xy -4.281822 -0.645487) (xy -4.240844 -0.646306) (xy -4.198511 -0.656906) (xy -4.196324 -0.657711)
     (xy -4.165178 -0.674121) (xy -4.136576 -0.698170) (xy -4.113025 -0.727535) (xy -4.104131 -0.743078) (xy -4.096849 -0.758598) (xy -4.092340 -0.771827) (xy -4.089957 -0.786102) (xy -4.089053 -0.804761)
     (xy -4.088951 -0.821315) (xy -4.089410 -0.846045) (xy -4.091074 -0.864023) (xy -4.094463 -0.878437) (xy -4.100097 -0.892473) (xy -4.100805 -0.893981) (xy -4.122453 -0.929399) (xy -4.150584 -0.957443)
     (xy -4.182418 -0.977193) (xy -4.199227 -0.985036) (xy -4.213043 -0.989889) (xy -4.227349 -0.992459) (xy -4.245629 -0.993452) (xy -4.263140 -0.993589) (xy -4.286904 -0.993236) (xy -4.304042 -0.991774)
     (xy -4.317873 -0.988593) (xy -4.331720 -0.983085) (xy -4.338717 -0.979746) (xy -4.374558 -0.956876) (xy -4.403400 -0.926919) (xy -4.423952 -0.892630) (xy -4.432572 -0.872340) (xy -4.437247 -0.854945)
     (xy -4.439066 -0.835420) (xy -4.439244 -0.822115) (xy -4.665927 -0.822115) (xy -4.665473 -0.839137) (xy -4.664092 -0.868572) (xy -4.662062 -0.891361) (xy -4.658840 -0.910819) (xy -4.653880 -0.930262)
     (xy -4.646814 -0.952468) (xy -4.621813 -1.012378) (xy -4.589160 -1.066330) (xy -4.549240 -1.113812) (xy -4.502439 -1.154310) (xy -4.488208 -1.164291) (xy -4.434733 -1.195533) (xy -4.381260 -1.217342)
     (xy -4.326318 -1.230134) (xy -4.268436 -1.234328) (xy -4.243523 -1.233659) (xy -4.182776 -1.226484) (xy -4.126789 -1.211300) (xy -4.073661 -1.187443) (xy -4.026647 -1.157956) (xy -4.004379 -1.140422)
     (xy -3.981105 -1.119245) (xy -3.959549 -1.097120) (xy -3.942431 -1.076742) (xy -3.937343 -1.069540) (xy -3.928384 -1.055844) (xy -2.022040 -1.055844) (xy -2.022039 -1.056459) (xy -1.866921 -1.056459)
     (xy -1.741529 -1.054906) (xy -1.616138 -1.053353) (xy -1.584644 -1.038813) (xy -1.551298 -1.020575) (xy -1.522498 -0.998186) (xy -1.496828 -0.970140) (xy -1.472872 -0.934931) (xy -1.453213 -0.899062)
     (xy -1.445979 -0.883817) (xy -1.435563 -0.860511) (xy -1.422463 -0.830337) (xy -1.407177 -0.794489) (xy -1.390204 -0.754160) (xy -1.372042 -0.710545) (xy -1.353189 -0.664837) (xy -1.334145 -0.618229)
     (xy -1.315407 -0.571917) (xy -1.297474 -0.527094) (xy -1.289492 -0.506948) (xy -1.278730 -0.480215) (xy -1.270818 -0.461956) (xy -1.265269 -0.451258) (xy -1.261600 -0.447210) (xy -1.259325 -0.448898)
     (xy -1.259047 -0.449673) (xy -1.257282 -0.455978) (xy -1.253128 -0.471224) (xy -1.246767 -0.494730) (xy -1.238383 -0.525814) (xy -1.228157 -0.563796) (xy -1.216275 -0.607993) (xy -1.202918 -0.657725)
     (xy -1.188271 -0.712310) (xy -1.172515 -0.771066) (xy -1.155835 -0.833312) (xy -1.138413 -0.898367) (xy -1.132921 -0.918883) (xy -1.100363 -1.040440) (xy -1.070235 -1.152737) (xy -1.042434 -1.256147)
     (xy -1.016853 -1.351042) (xy -0.993388 -1.437797) (xy -0.971935 -1.516782) (xy -0.952388 -1.588371) (xy -0.934642 -1.652938) (xy -0.918592 -1.710853) (xy -0.904134 -1.762491) (xy -0.891163 -1.808224)
     (xy -0.879573 -1.848425) (xy -0.869259 -1.883466) (xy -0.860118 -1.913721) (xy -0.852043 -1.939561) (xy -0.844930 -1.961361) (xy -0.838674 -1.979492) (xy -0.833170 -1.994328) (xy -0.828313 -2.006240)
     (xy -0.824489 -2.014606) (xy -0.812158 -2.036301) (xy -0.796080 -2.059845) (xy -0.779699 -2.080198) (xy -0.779446 -2.080478) (xy -0.745490 -2.110860) (xy -0.706508 -2.133417) (xy -0.663977 -2.147868)
     (xy -0.619376 -2.153930) (xy -0.574184 -2.151322) (xy -0.529878 -2.139763) (xy -0.510806 -2.131653) (xy -0.483707 -2.116940) (xy -0.461502 -2.100454) (xy -0.441415 -2.079732) (xy -0.420673 -2.052313)
     (xy -0.419468 -2.050576) (xy -0.414362 -2.043009) (xy -0.409265 -2.034982) (xy -0.404018 -2.026088) (xy -0.398457 -2.015919) (xy -0.392421 -2.004069) (xy -0.385749 -1.990130) (xy -0.378279 -1.973694)
     (xy -0.369849 -1.954355) (xy -0.360296 -1.931705) (xy -0.349461 -1.905338) (xy -0.337180 -1.874845) (xy -0.323292 -1.839820) (xy -0.307635 -1.799855) (xy -0.290048 -1.754544) (xy -0.270368 -1.703478)
     (xy -0.248435 -1.646251) (xy -0.224085 -1.582455) (xy -0.197159 -1.511684) (xy -0.167493 -1.433530) (xy -0.134926 -1.347585) (xy -0.099296 -1.253443) (xy -0.060442 -1.150696) (xy -0.028593 -1.066433)
     (xy -0.017589 -1.038019) (xy -0.009319 -1.018392) (xy -0.003444 -1.006865) (xy 0.000373 -1.002749) (xy 0.002118 -1.004178) (xy 0.004443 -1.010275) (xy 0.010002 -1.024928) (xy 0.018506 -1.047375)
     (xy 0.029667 -1.076854) (xy 0.043196 -1.112604) (xy 0.058805 -1.153864) (xy 0.076207 -1.199871) (xy 0.095112 -1.249864) (xy 0.115233 -1.303082) (xy 0.132851 -1.349687) (xy 0.167398 -1.441030)
     (xy 0.198652 -1.523541) (xy 0.226812 -1.597716) (xy 0.252077 -1.664052) (xy 0.274648 -1.723045) (xy 0.294725 -1.775191) (xy 0.312505 -1.820987) (xy 0.328190 -1.860929) (xy 0.341979 -1.895513)
     (xy 0.354072 -1.925235) (xy 0.364667 -1.950593) (xy 0.373965 -1.972081) (xy 0.382166 -1.990197) (xy 0.389468 -2.005436) (xy 0.396072 -2.018295) (xy 0.402176 -2.029271) (xy 0.407982 -2.038860)
     (xy 0.413270 -2.046942) (xy 0.436887 -2.078559) (xy 0.460697 -2.102689) (xy 0.487376 -2.121488) (xy 0.519601 -2.137115) (xy 0.530411 -2.141379) (xy 0.561038 -2.149352) (xy 0.596748 -2.152939)
     (xy 0.633668 -2.152116) (xy 0.667927 -2.146861) (xy 0.683552 -2.142315) (xy 0.726618 -2.121852) (xy 0.764599 -2.093209) (xy 0.796623 -2.057233) (xy 0.821815 -2.014772) (xy 0.826909 -2.003324)
     (xy 0.831261 -1.992230) (xy 0.836394 -1.977845) (xy 0.842401 -1.959830) (xy 0.849377 -1.937847) (xy 0.857415 -1.911559) (xy 0.866609 -1.880628) (xy 0.877054 -1.844715) (xy 0.888843 -1.803484)
     (xy 0.902071 -1.756595) (xy 0.916831 -1.703712) (xy 0.933217 -1.644496) (xy 0.951323 -1.578610) (xy 0.971244 -1.505715) (xy 0.993073 -1.425474) (xy 1.016904 -1.337549) (xy 1.042832 -1.241602)
     (xy 1.070949 -1.137295) (xy 1.101351 -1.024290) (xy 1.134130 -0.902249) (xy 1.160715 -0.803160) (xy 1.176265 -0.745370) (xy 1.191118 -0.690548) (xy 1.205069 -0.639429) (xy 1.217912 -0.592748)
     (xy 1.229442 -0.551241) (xy 1.239454 -0.515642) (xy 1.247742 -0.486688) (xy 1.254099 -0.465113) (xy 1.258322 -0.451653) (xy 1.260204 -0.447043) (xy 1.260236 -0.447061) (xy 1.262726 -0.452353)
     (xy 1.268512 -0.465857) (xy 1.277168 -0.486546) (xy 1.288272 -0.513391) (xy 1.301397 -0.545366) (xy 1.316119 -0.581442) (xy 1.332013 -0.620593) (xy 1.334821 -0.627530) (xy 1.352181 -0.670247)
     (xy 1.369597 -0.712768) (xy 1.386432 -0.753557) (xy 1.402048 -0.791080) (xy 1.414853 -0.821536) (xy 4.087284 -0.821536) (xy 4.087856 -0.797548) (xy 4.090102 -0.779550) (xy 4.094734 -0.763618)
     (xy 4.100076 -0.750938) (xy 4.121803 -0.714588) (xy 4.149821 -0.685339) (xy 4.182963 -0.663693) (xy 4.220061 -0.650152) (xy 4.259945 -0.645217) (xy 4.301446 -0.649390) (xy 4.322980 -0.655228)
     (xy 4.356410 -0.671298) (xy 4.386256 -0.695418) (xy 4.410984 -0.725889) (xy 4.429065 -0.761013) (xy 4.435039 -0.779432) (xy 4.440287 -0.818021) (xy 4.436346 -0.856337) (xy 4.423916 -0.892924)
     (xy 4.403698 -0.926323) (xy 4.376392 -0.955077) (xy 4.342700 -0.977730) (xy 4.338736 -0.979737) (xy 4.323798 -0.986479) (xy 4.310353 -0.990618) (xy 4.295071 -0.992766) (xy 4.274624 -0.993532)
     (xy 4.263215 -0.993589) (xy 4.239070 -0.993195) (xy 4.221477 -0.991615) (xy 4.207044 -0.988255) (xy 4.192381 -0.982517) (xy 4.187531 -0.980290) (xy 4.153776 -0.959213) (xy 4.124842 -0.930608)
     (xy 4.102748 -0.896506) (xy 4.101369 -0.893671) (xy 4.094038 -0.876643) (xy 4.089762 -0.861318) (xy 4.087767 -0.843743) (xy 4.087284 -0.821536) (xy 1.414853 -0.821536) (xy 1.415806 -0.823802)
     (xy 1.427067 -0.850189) (xy 1.434513 -0.867191) (xy 1.458166 -0.915433) (xy 1.482288 -0.954895) (xy 1.507865 -0.986741) (xy 1.535880 -1.012138) (xy 1.567318 -1.032253) (xy 1.578548 -1.037901)
     (xy 1.611157 -1.053353) (xy 1.739216 -1.054903) (xy 1.867276 -1.056453) (xy 1.865122 -1.069844) (xy 1.863566 -1.079646) (xy 1.860831 -1.097002) (xy 1.857277 -1.119624) (xy 1.853263 -1.145226)
     (xy 1.852442 -1.150471) (xy 1.825944 -1.287769) (xy 1.789888 -1.422982) (xy 1.744563 -1.555452) (xy 1.690256 -1.684525) (xy 1.627256 -1.809545) (xy 1.555852 -1.929856) (xy 1.476332 -2.044803)
     (xy 1.436270 -2.096745) (xy 1.406515 -2.132297) (xy 1.370885 -2.172057) (xy 1.331141 -2.214259) (xy 1.289046 -2.257137) (xy 1.246363 -2.298925) (xy 1.204852 -2.337858) (xy 1.166277 -2.372168)
     (xy 1.138019 -2.395656) (xy 1.027605 -2.477473) (xy 0.912888 -2.550311) (xy 0.793962 -2.614131) (xy 0.670919 -2.668894) (xy 0.543850 -2.714560) (xy 0.412848 -2.751089) (xy 0.278006 -2.778442)
     (xy 0.224117 -2.786653) (xy 0.191591 -2.790231) (xy 0.151355 -2.793201) (xy 0.105644 -2.795516) (xy 0.056694 -2.797130) (xy 0.006741 -2.797995) (xy -0.041981 -2.798067) (xy -0.087237 -2.797298)
     (xy -0.126791 -2.795641) (xy -0.145336 -2.794333) (xy -0.277239 -2.778312) (xy -0.406389 -2.752932) (xy -0.532441 -2.718499) (xy -0.655052 -2.675319) (xy -0.773879 -2.623697) (xy -0.888576 -2.563940)
     (xy -0.998802 -2.496352) (xy -1.104210 -2.421240) (xy -1.204458 -2.338911) (xy -1.299202 -2.249669) (xy -1.388098 -2.153820) (xy -1.470802 -2.051671) (xy -1.546970 -1.943528) (xy -1.616258 -1.829695)
     (xy -1.678322 -1.710479) (xy -1.732819 -1.586186) (xy -1.779405 -1.457122) (xy -1.817735 -1.323592) (xy -1.823002 -1.302156) (xy -1.829843 -1.271482) (xy -1.837447 -1.233718) (xy -1.845307 -1.191652)
     (xy -1.852916 -1.148075) (xy -1.859767 -1.105774) (xy -1.864346 -1.074828) (xy -1.866921 -1.056459) (xy -2.022039 -1.056459) (xy -2.022007 -1.069540) (xy -2.020689 -1.091504) (xy -2.017030 -1.121515)
     (xy -2.011346 -1.158017) (xy -2.003953 -1.199456) (xy -1.995168 -1.244280) (xy -1.985308 -1.290932) (xy -1.974689 -1.337861) (xy -1.963628 -1.383511) (xy -1.952441 -1.426328) (xy -1.941640 -1.464111)
     (xy -1.909869 -1.560335) (xy -1.872125 -1.659023) (xy -1.829808 -1.756897) (xy -1.784318 -1.850677) (xy -1.747406 -1.919098) (xy -1.674071 -2.038579) (xy -1.592577 -2.153120) (xy -1.503524 -2.262119)
     (xy -1.407510 -2.364971) (xy -1.305135 -2.461070) (xy -1.196998 -2.549813) (xy -1.083697 -2.630595) (xy -0.977226 -2.696325) (xy -0.938695 -2.718192) (xy -0.905766 -2.736224) (xy -0.875583 -2.751849)
     (xy -0.845290 -2.766494) (xy -0.812032 -2.781588) (xy -0.772953 -2.798556) (xy -0.771380 -2.799229) (xy -0.657230 -2.844136) (xy -0.542120 -2.881402) (xy -0.424060 -2.911560) (xy -0.301060 -2.935146)
     (xy -0.221628 -2.946679) (xy -0.190932 -2.949752) (xy -0.152398 -2.952234) (xy -0.108000 -2.954114) (xy -0.059708 -2.955379) (xy -0.009495 -2.956017) (xy 0.040668 -2.956015) )(layer F.SilkS) (width  0.010000)
  )
)
